[Info]
Version 1
Dimension 3
NumNodes 299
Num3DElements 180
Num2DElements 102
Num1DElements 0
NumNodeBC 0
NumSaveNodes 0
NumSaveElements 0
Num 2d-line      : 0
Num 2d-line,quad : 0
Num 3d-line      : 0
Num 3d-line,quad : 0
Num triangle     : 0
Num triangle,quad: 0
Num quadr        : 102
Num quadr,quad   : 0
Num tetra        : 0
Num tetra,quad   : 0
Num brick        : 180
Num brick,quad   : 0
Num pyramid      : 0
Num pyramid,quad : 0
Num wedge        : 0
Num wedge,quad   : 0

[Nodes]
#NodeNr x-coord y-coord z-coord
       1  0.0000000000000e+00  0.0000000000000e+00  0.0000000000000e+00
       2  5.0000000000000e-01  0.0000000000000e+00  0.0000000000000e+00
       3  5.0000000000000e-01  5.0000000000000e-01  0.0000000000000e+00
       4  0.0000000000000e+00  5.0000000000000e-01  0.0000000000000e+00
       5  3.0000000000000e+00  0.0000000000000e+00  0.0000000000000e+00
       6  1.7500000000000e+00  0.0000000000000e+00  0.0000000000000e+00
       7  3.0000000000000e+00  5.0000000000000e-01  0.0000000000000e+00
       8  1.7500000000000e+00  5.0000000000000e-01  0.0000000000000e+00
       9  4.0000000000000e+00  0.0000000000000e+00  0.0000000000000e+00
      10  4.0000000000000e+00  5.0000000000000e-01  0.0000000000000e+00
      11  5.0000000000000e-01  3.0000000000000e+00  0.0000000000000e+00
      12  5.0000000000000e-01  1.7500000000000e+00  0.0000000000000e+00
      13  0.0000000000000e+00  3.0000000000000e+00  0.0000000000000e+00
      14  0.0000000000000e+00  1.7500000000000e+00  0.0000000000000e+00
      15  3.0000000000000e+00  3.0000000000000e+00  0.0000000000000e+00
      16  3.0000000000000e+00  1.7500000000000e+00  0.0000000000000e+00
      17  1.7500000000000e+00  3.0000000000000e+00  0.0000000000000e+00
      18  1.7500000000000e+00  1.7500000000000e+00  0.0000000000000e+00
      19  5.0000000000000e-01  4.0000000000000e+00  0.0000000000000e+00
      20  0.0000000000000e+00  4.0000000000000e+00  0.0000000000000e+00
      21  4.0000000000000e+00  4.0000000000000e+00  0.0000000000000e+00
      22  4.0000000000000e+00  2.2500000000000e+00  0.0000000000000e+00
      23  2.2500000000000e+00  4.0000000000000e+00  0.0000000000000e+00
      24  0.0000000000000e+00  0.0000000000000e+00  2.0000000000000e-02
      25  5.0000000000000e-01  0.0000000000000e+00  2.0000000000000e-02
      26  5.0000000000000e-01  5.0000000000000e-01  2.0000000000000e-02
      27  0.0000000000000e+00  5.0000000000000e-01  2.0000000000000e-02
      28  0.0000000000000e+00  0.0000000000000e+00  2.0000000000000e-03
      29  0.0000000000000e+00  0.0000000000000e+00  4.0000000000000e-03
      30  0.0000000000000e+00  0.0000000000000e+00  6.0000000000000e-03
      31  0.0000000000000e+00  0.0000000000000e+00  8.0000000000000e-03
      32  0.0000000000000e+00  0.0000000000000e+00  1.0000000000000e-02
      33  0.0000000000000e+00  0.0000000000000e+00  1.2000000000000e-02
      34  0.0000000000000e+00  0.0000000000000e+00  1.4000000000000e-02
      35  0.0000000000000e+00  0.0000000000000e+00  1.6000000000000e-02
      36  0.0000000000000e+00  0.0000000000000e+00  1.8000000000000e-02
      37  5.0000000000000e-01  0.0000000000000e+00  2.0000000000000e-03
      38  5.0000000000000e-01  0.0000000000000e+00  4.0000000000000e-03
      39  5.0000000000000e-01  0.0000000000000e+00  6.0000000000000e-03
      40  5.0000000000000e-01  0.0000000000000e+00  8.0000000000000e-03
      41  5.0000000000000e-01  0.0000000000000e+00  1.0000000000000e-02
      42  5.0000000000000e-01  0.0000000000000e+00  1.2000000000000e-02
      43  5.0000000000000e-01  0.0000000000000e+00  1.4000000000000e-02
      44  5.0000000000000e-01  0.0000000000000e+00  1.6000000000000e-02
      45  5.0000000000000e-01  0.0000000000000e+00  1.8000000000000e-02
      46  5.0000000000000e-01  5.0000000000000e-01  2.0000000000000e-03
      47  5.0000000000000e-01  5.0000000000000e-01  4.0000000000000e-03
      48  5.0000000000000e-01  5.0000000000000e-01  6.0000000000000e-03
      49  5.0000000000000e-01  5.0000000000000e-01  8.0000000000000e-03
      50  5.0000000000000e-01  5.0000000000000e-01  1.0000000000000e-02
      51  5.0000000000000e-01  5.0000000000000e-01  1.2000000000000e-02
      52  5.0000000000000e-01  5.0000000000000e-01  1.4000000000000e-02
      53  5.0000000000000e-01  5.0000000000000e-01  1.6000000000000e-02
      54  5.0000000000000e-01  5.0000000000000e-01  1.8000000000000e-02
      55  0.0000000000000e+00  5.0000000000000e-01  2.0000000000000e-03
      56  0.0000000000000e+00  5.0000000000000e-01  4.0000000000000e-03
      57  0.0000000000000e+00  5.0000000000000e-01  6.0000000000000e-03
      58  0.0000000000000e+00  5.0000000000000e-01  8.0000000000000e-03
      59  0.0000000000000e+00  5.0000000000000e-01  1.0000000000000e-02
      60  0.0000000000000e+00  5.0000000000000e-01  1.2000000000000e-02
      61  0.0000000000000e+00  5.0000000000000e-01  1.4000000000000e-02
      62  0.0000000000000e+00  5.0000000000000e-01  1.6000000000000e-02
      63  0.0000000000000e+00  5.0000000000000e-01  1.8000000000000e-02
      64  3.0000000000000e+00  0.0000000000000e+00  2.0000000000000e-02
      65  1.7500000000000e+00  0.0000000000000e+00  2.0000000000000e-02
      66  3.0000000000000e+00  5.0000000000000e-01  2.0000000000000e-02
      67  1.7500000000000e+00  5.0000000000000e-01  2.0000000000000e-02
      68  3.0000000000000e+00  0.0000000000000e+00  2.0000000000000e-03
      69  3.0000000000000e+00  0.0000000000000e+00  4.0000000000000e-03
      70  3.0000000000000e+00  0.0000000000000e+00  6.0000000000000e-03
      71  3.0000000000000e+00  0.0000000000000e+00  8.0000000000000e-03
      72  3.0000000000000e+00  0.0000000000000e+00  1.0000000000000e-02
      73  3.0000000000000e+00  0.0000000000000e+00  1.2000000000000e-02
      74  3.0000000000000e+00  0.0000000000000e+00  1.4000000000000e-02
      75  3.0000000000000e+00  0.0000000000000e+00  1.6000000000000e-02
      76  3.0000000000000e+00  0.0000000000000e+00  1.8000000000000e-02
      77  3.0000000000000e+00  5.0000000000000e-01  2.0000000000000e-03
      78  3.0000000000000e+00  5.0000000000000e-01  4.0000000000000e-03
      79  3.0000000000000e+00  5.0000000000000e-01  6.0000000000000e-03
      80  3.0000000000000e+00  5.0000000000000e-01  8.0000000000000e-03
      81  3.0000000000000e+00  5.0000000000000e-01  1.0000000000000e-02
      82  3.0000000000000e+00  5.0000000000000e-01  1.2000000000000e-02
      83  3.0000000000000e+00  5.0000000000000e-01  1.4000000000000e-02
      84  3.0000000000000e+00  5.0000000000000e-01  1.6000000000000e-02
      85  3.0000000000000e+00  5.0000000000000e-01  1.8000000000000e-02
      86  1.7500000000000e+00  0.0000000000000e+00  2.0000000000000e-03
      87  1.7500000000000e+00  0.0000000000000e+00  4.0000000000000e-03
      88  1.7500000000000e+00  0.0000000000000e+00  6.0000000000000e-03
      89  1.7500000000000e+00  0.0000000000000e+00  8.0000000000000e-03
      90  1.7500000000000e+00  0.0000000000000e+00  1.0000000000000e-02
      91  1.7500000000000e+00  0.0000000000000e+00  1.2000000000000e-02
      92  1.7500000000000e+00  0.0000000000000e+00  1.4000000000000e-02
      93  1.7500000000000e+00  0.0000000000000e+00  1.6000000000000e-02
      94  1.7500000000000e+00  0.0000000000000e+00  1.8000000000000e-02
      95  1.7500000000000e+00  5.0000000000000e-01  2.0000000000000e-03
      96  1.7500000000000e+00  5.0000000000000e-01  4.0000000000000e-03
      97  1.7500000000000e+00  5.0000000000000e-01  6.0000000000000e-03
      98  1.7500000000000e+00  5.0000000000000e-01  8.0000000000000e-03
      99  1.7500000000000e+00  5.0000000000000e-01  1.0000000000000e-02
     100  1.7500000000000e+00  5.0000000000000e-01  1.2000000000000e-02
     101  1.7500000000000e+00  5.0000000000000e-01  1.4000000000000e-02
     102  1.7500000000000e+00  5.0000000000000e-01  1.6000000000000e-02
     103  1.7500000000000e+00  5.0000000000000e-01  1.8000000000000e-02
     104  4.0000000000000e+00  0.0000000000000e+00  2.0000000000000e-02
     105  4.0000000000000e+00  5.0000000000000e-01  2.0000000000000e-02
     106  4.0000000000000e+00  0.0000000000000e+00  2.0000000000000e-03
     107  4.0000000000000e+00  0.0000000000000e+00  4.0000000000000e-03
     108  4.0000000000000e+00  0.0000000000000e+00  6.0000000000000e-03
     109  4.0000000000000e+00  0.0000000000000e+00  8.0000000000000e-03
     110  4.0000000000000e+00  0.0000000000000e+00  1.0000000000000e-02
     111  4.0000000000000e+00  0.0000000000000e+00  1.2000000000000e-02
     112  4.0000000000000e+00  0.0000000000000e+00  1.4000000000000e-02
     113  4.0000000000000e+00  0.0000000000000e+00  1.6000000000000e-02
     114  4.0000000000000e+00  0.0000000000000e+00  1.8000000000000e-02
     115  4.0000000000000e+00  5.0000000000000e-01  2.0000000000000e-03
     116  4.0000000000000e+00  5.0000000000000e-01  4.0000000000000e-03
     117  4.0000000000000e+00  5.0000000000000e-01  6.0000000000000e-03
     118  4.0000000000000e+00  5.0000000000000e-01  8.0000000000000e-03
     119  4.0000000000000e+00  5.0000000000000e-01  1.0000000000000e-02
     120  4.0000000000000e+00  5.0000000000000e-01  1.2000000000000e-02
     121  4.0000000000000e+00  5.0000000000000e-01  1.4000000000000e-02
     122  4.0000000000000e+00  5.0000000000000e-01  1.6000000000000e-02
     123  4.0000000000000e+00  5.0000000000000e-01  1.8000000000000e-02
     124  5.0000000000000e-01  3.0000000000000e+00  2.0000000000000e-02
     125  5.0000000000000e-01  1.7500000000000e+00  2.0000000000000e-02
     126  0.0000000000000e+00  3.0000000000000e+00  2.0000000000000e-02
     127  0.0000000000000e+00  1.7500000000000e+00  2.0000000000000e-02
     128  5.0000000000000e-01  3.0000000000000e+00  2.0000000000000e-03
     129  5.0000000000000e-01  3.0000000000000e+00  4.0000000000000e-03
     130  5.0000000000000e-01  3.0000000000000e+00  6.0000000000000e-03
     131  5.0000000000000e-01  3.0000000000000e+00  8.0000000000000e-03
     132  5.0000000000000e-01  3.0000000000000e+00  1.0000000000000e-02
     133  5.0000000000000e-01  3.0000000000000e+00  1.2000000000000e-02
     134  5.0000000000000e-01  3.0000000000000e+00  1.4000000000000e-02
     135  5.0000000000000e-01  3.0000000000000e+00  1.6000000000000e-02
     136  5.0000000000000e-01  3.0000000000000e+00  1.8000000000000e-02
     137  0.0000000000000e+00  3.0000000000000e+00  2.0000000000000e-03
     138  0.0000000000000e+00  3.0000000000000e+00  4.0000000000000e-03
     139  0.0000000000000e+00  3.0000000000000e+00  6.0000000000000e-03
     140  0.0000000000000e+00  3.0000000000000e+00  8.0000000000000e-03
     141  0.0000000000000e+00  3.0000000000000e+00  1.0000000000000e-02
     142  0.0000000000000e+00  3.0000000000000e+00  1.2000000000000e-02
     143  0.0000000000000e+00  3.0000000000000e+00  1.4000000000000e-02
     144  0.0000000000000e+00  3.0000000000000e+00  1.6000000000000e-02
     145  0.0000000000000e+00  3.0000000000000e+00  1.8000000000000e-02
     146  5.0000000000000e-01  1.7500000000000e+00  2.0000000000000e-03
     147  5.0000000000000e-01  1.7500000000000e+00  4.0000000000000e-03
     148  5.0000000000000e-01  1.7500000000000e+00  6.0000000000000e-03
     149  5.0000000000000e-01  1.7500000000000e+00  8.0000000000000e-03
     150  5.0000000000000e-01  1.7500000000000e+00  1.0000000000000e-02
     151  5.0000000000000e-01  1.7500000000000e+00  1.2000000000000e-02
     152  5.0000000000000e-01  1.7500000000000e+00  1.4000000000000e-02
     153  5.0000000000000e-01  1.7500000000000e+00  1.6000000000000e-02
     154  5.0000000000000e-01  1.7500000000000e+00  1.8000000000000e-02
     155  0.0000000000000e+00  1.7500000000000e+00  2.0000000000000e-03
     156  0.0000000000000e+00  1.7500000000000e+00  4.0000000000000e-03
     157  0.0000000000000e+00  1.7500000000000e+00  6.0000000000000e-03
     158  0.0000000000000e+00  1.7500000000000e+00  8.0000000000000e-03
     159  0.0000000000000e+00  1.7500000000000e+00  1.0000000000000e-02
     160  0.0000000000000e+00  1.7500000000000e+00  1.2000000000000e-02
     161  0.0000000000000e+00  1.7500000000000e+00  1.4000000000000e-02
     162  0.0000000000000e+00  1.7500000000000e+00  1.6000000000000e-02
     163  0.0000000000000e+00  1.7500000000000e+00  1.8000000000000e-02
     164  3.0000000000000e+00  3.0000000000000e+00  2.0000000000000e-02
     165  3.0000000000000e+00  1.7500000000000e+00  2.0000000000000e-02
     166  1.7500000000000e+00  3.0000000000000e+00  2.0000000000000e-02
     167  1.7500000000000e+00  1.7500000000000e+00  2.0000000000000e-02
     168  3.0000000000000e+00  3.0000000000000e+00  2.0000000000000e-03
     169  3.0000000000000e+00  3.0000000000000e+00  4.0000000000000e-03
     170  3.0000000000000e+00  3.0000000000000e+00  6.0000000000000e-03
     171  3.0000000000000e+00  3.0000000000000e+00  8.0000000000000e-03
     172  3.0000000000000e+00  3.0000000000000e+00  1.0000000000000e-02
     173  3.0000000000000e+00  3.0000000000000e+00  1.2000000000000e-02
     174  3.0000000000000e+00  3.0000000000000e+00  1.4000000000000e-02
     175  3.0000000000000e+00  3.0000000000000e+00  1.6000000000000e-02
     176  3.0000000000000e+00  3.0000000000000e+00  1.8000000000000e-02
     177  3.0000000000000e+00  1.7500000000000e+00  2.0000000000000e-03
     178  3.0000000000000e+00  1.7500000000000e+00  4.0000000000000e-03
     179  3.0000000000000e+00  1.7500000000000e+00  6.0000000000000e-03
     180  3.0000000000000e+00  1.7500000000000e+00  8.0000000000000e-03
     181  3.0000000000000e+00  1.7500000000000e+00  1.0000000000000e-02
     182  3.0000000000000e+00  1.7500000000000e+00  1.2000000000000e-02
     183  3.0000000000000e+00  1.7500000000000e+00  1.4000000000000e-02
     184  3.0000000000000e+00  1.7500000000000e+00  1.6000000000000e-02
     185  3.0000000000000e+00  1.7500000000000e+00  1.8000000000000e-02
     186  1.7500000000000e+00  3.0000000000000e+00  2.0000000000000e-03
     187  1.7500000000000e+00  3.0000000000000e+00  4.0000000000000e-03
     188  1.7500000000000e+00  3.0000000000000e+00  6.0000000000000e-03
     189  1.7500000000000e+00  3.0000000000000e+00  8.0000000000000e-03
     190  1.7500000000000e+00  3.0000000000000e+00  1.0000000000000e-02
     191  1.7500000000000e+00  3.0000000000000e+00  1.2000000000000e-02
     192  1.7500000000000e+00  3.0000000000000e+00  1.4000000000000e-02
     193  1.7500000000000e+00  3.0000000000000e+00  1.6000000000000e-02
     194  1.7500000000000e+00  3.0000000000000e+00  1.8000000000000e-02
     195  1.7500000000000e+00  1.7500000000000e+00  2.0000000000000e-03
     196  1.7500000000000e+00  1.7500000000000e+00  4.0000000000000e-03
     197  1.7500000000000e+00  1.7500000000000e+00  6.0000000000000e-03
     198  1.7500000000000e+00  1.7500000000000e+00  8.0000000000000e-03
     199  1.7500000000000e+00  1.7500000000000e+00  1.0000000000000e-02
     200  1.7500000000000e+00  1.7500000000000e+00  1.2000000000000e-02
     201  1.7500000000000e+00  1.7500000000000e+00  1.4000000000000e-02
     202  1.7500000000000e+00  1.7500000000000e+00  1.6000000000000e-02
     203  1.7500000000000e+00  1.7500000000000e+00  1.8000000000000e-02
     204  5.0000000000000e-01  4.0000000000000e+00  2.0000000000000e-02
     205  0.0000000000000e+00  4.0000000000000e+00  2.0000000000000e-02
     206  5.0000000000000e-01  4.0000000000000e+00  2.0000000000000e-03
     207  5.0000000000000e-01  4.0000000000000e+00  4.0000000000000e-03
     208  5.0000000000000e-01  4.0000000000000e+00  6.0000000000000e-03
     209  5.0000000000000e-01  4.0000000000000e+00  8.0000000000000e-03
     210  5.0000000000000e-01  4.0000000000000e+00  1.0000000000000e-02
     211  5.0000000000000e-01  4.0000000000000e+00  1.2000000000000e-02
     212  5.0000000000000e-01  4.0000000000000e+00  1.4000000000000e-02
     213  5.0000000000000e-01  4.0000000000000e+00  1.6000000000000e-02
     214  5.0000000000000e-01  4.0000000000000e+00  1.8000000000000e-02
     215  0.0000000000000e+00  4.0000000000000e+00  2.0000000000000e-03
     216  0.0000000000000e+00  4.0000000000000e+00  4.0000000000000e-03
     217  0.0000000000000e+00  4.0000000000000e+00  6.0000000000000e-03
     218  0.0000000000000e+00  4.0000000000000e+00  8.0000000000000e-03
     219  0.0000000000000e+00  4.0000000000000e+00  1.0000000000000e-02
     220  0.0000000000000e+00  4.0000000000000e+00  1.2000000000000e-02
     221  0.0000000000000e+00  4.0000000000000e+00  1.4000000000000e-02
     222  0.0000000000000e+00  4.0000000000000e+00  1.6000000000000e-02
     223  0.0000000000000e+00  4.0000000000000e+00  1.8000000000000e-02
     224  4.0000000000000e+00  4.0000000000000e+00  2.0000000000000e-02
     225  4.0000000000000e+00  2.2500000000000e+00  2.0000000000000e-02
     226  4.0000000000000e+00  4.0000000000000e+00  2.0000000000000e-03
     227  4.0000000000000e+00  4.0000000000000e+00  4.0000000000000e-03
     228  4.0000000000000e+00  4.0000000000000e+00  6.0000000000000e-03
     229  4.0000000000000e+00  4.0000000000000e+00  8.0000000000000e-03
     230  4.0000000000000e+00  4.0000000000000e+00  1.0000000000000e-02
     231  4.0000000000000e+00  4.0000000000000e+00  1.2000000000000e-02
     232  4.0000000000000e+00  4.0000000000000e+00  1.4000000000000e-02
     233  4.0000000000000e+00  4.0000000000000e+00  1.6000000000000e-02
     234  4.0000000000000e+00  4.0000000000000e+00  1.8000000000000e-02
     235  4.0000000000000e+00  2.2500000000000e+00  2.0000000000000e-03
     236  4.0000000000000e+00  2.2500000000000e+00  4.0000000000000e-03
     237  4.0000000000000e+00  2.2500000000000e+00  6.0000000000000e-03
     238  4.0000000000000e+00  2.2500000000000e+00  8.0000000000000e-03
     239  4.0000000000000e+00  2.2500000000000e+00  1.0000000000000e-02
     240  4.0000000000000e+00  2.2500000000000e+00  1.2000000000000e-02
     241  4.0000000000000e+00  2.2500000000000e+00  1.4000000000000e-02
     242  4.0000000000000e+00  2.2500000000000e+00  1.6000000000000e-02
     243  4.0000000000000e+00  2.2500000000000e+00  1.8000000000000e-02
     244  2.2500000000000e+00  4.0000000000000e+00  2.0000000000000e-02
     245  2.2500000000000e+00  4.0000000000000e+00  2.0000000000000e-03
     246  2.2500000000000e+00  4.0000000000000e+00  4.0000000000000e-03
     247  2.2500000000000e+00  4.0000000000000e+00  6.0000000000000e-03
     248  2.2500000000000e+00  4.0000000000000e+00  8.0000000000000e-03
     249  2.2500000000000e+00  4.0000000000000e+00  1.0000000000000e-02
     250  2.2500000000000e+00  4.0000000000000e+00  1.2000000000000e-02
     251  2.2500000000000e+00  4.0000000000000e+00  1.4000000000000e-02
     252  2.2500000000000e+00  4.0000000000000e+00  1.6000000000000e-02
     253  2.2500000000000e+00  4.0000000000000e+00  1.8000000000000e-02
     254  0.0000000000000e+00  0.0000000000000e+00  5.2000000000000e-01
     255  5.0000000000000e-01  0.0000000000000e+00  5.2000000000000e-01
     256  5.0000000000000e-01  5.0000000000000e-01  5.2000000000000e-01
     257  0.0000000000000e+00  5.0000000000000e-01  5.2000000000000e-01
     258  3.0000000000000e+00  0.0000000000000e+00  5.2000000000000e-01
     259  1.7500000000000e+00  0.0000000000000e+00  5.2000000000000e-01
     260  3.0000000000000e+00  5.0000000000000e-01  5.2000000000000e-01
     261  1.7500000000000e+00  5.0000000000000e-01  5.2000000000000e-01
     262  4.0000000000000e+00  0.0000000000000e+00  5.2000000000000e-01
     263  4.0000000000000e+00  5.0000000000000e-01  5.2000000000000e-01
     264  5.0000000000000e-01  3.0000000000000e+00  5.2000000000000e-01
     265  5.0000000000000e-01  1.7500000000000e+00  5.2000000000000e-01
     266  0.0000000000000e+00  3.0000000000000e+00  5.2000000000000e-01
     267  0.0000000000000e+00  1.7500000000000e+00  5.2000000000000e-01
     268  3.0000000000000e+00  3.0000000000000e+00  5.2000000000000e-01
     269  3.0000000000000e+00  1.7500000000000e+00  5.2000000000000e-01
     270  1.7500000000000e+00  3.0000000000000e+00  5.2000000000000e-01
     271  1.7500000000000e+00  1.7500000000000e+00  5.2000000000000e-01
     272  5.0000000000000e-01  4.0000000000000e+00  5.2000000000000e-01
     273  0.0000000000000e+00  4.0000000000000e+00  5.2000000000000e-01
     274  4.0000000000000e+00  4.0000000000000e+00  5.2000000000000e-01
     275  4.0000000000000e+00  2.2500000000000e+00  5.2000000000000e-01
     276  2.2500000000000e+00  4.0000000000000e+00  5.2000000000000e-01
     277  0.0000000000000e+00  0.0000000000000e+00 -5.0000000000000e-01
     278  5.0000000000000e-01  0.0000000000000e+00 -5.0000000000000e-01
     279  5.0000000000000e-01  5.0000000000000e-01 -5.0000000000000e-01
     280  0.0000000000000e+00  5.0000000000000e-01 -5.0000000000000e-01
     281  3.0000000000000e+00  0.0000000000000e+00 -5.0000000000000e-01
     282  1.7500000000000e+00  0.0000000000000e+00 -5.0000000000000e-01
     283  3.0000000000000e+00  5.0000000000000e-01 -5.0000000000000e-01
     284  1.7500000000000e+00  5.0000000000000e-01 -5.0000000000000e-01
     285  4.0000000000000e+00  0.0000000000000e+00 -5.0000000000000e-01
     286  4.0000000000000e+00  5.0000000000000e-01 -5.0000000000000e-01
     287  5.0000000000000e-01  3.0000000000000e+00 -5.0000000000000e-01
     288  5.0000000000000e-01  1.7500000000000e+00 -5.0000000000000e-01
     289  0.0000000000000e+00  3.0000000000000e+00 -5.0000000000000e-01
     290  0.0000000000000e+00  1.7500000000000e+00 -5.0000000000000e-01
     291  3.0000000000000e+00  3.0000000000000e+00 -5.0000000000000e-01
     292  3.0000000000000e+00  1.7500000000000e+00 -5.0000000000000e-01
     293  1.7500000000000e+00  3.0000000000000e+00 -5.0000000000000e-01
     294  1.7500000000000e+00  1.7500000000000e+00 -5.0000000000000e-01
     295  5.0000000000000e-01  4.0000000000000e+00 -5.0000000000000e-01
     296  0.0000000000000e+00  4.0000000000000e+00 -5.0000000000000e-01
     297  4.0000000000000e+00  4.0000000000000e+00 -5.0000000000000e-01
     298  4.0000000000000e+00  2.2500000000000e+00 -5.0000000000000e-01
     299  2.2500000000000e+00  4.0000000000000e+00 -5.0000000000000e-01

[3D Elements]
#ElemNr  ElemType  NrOfNodes  Level
#Node1 Node2 ... NodeNrOfNodes
101 10 8 yoke_upper
13 11 19 20 137 128 206 215
102 10 8 yoke_upper
137 128 206 215 138 129 207 216
103 10 8 yoke_upper
138 129 207 216 139 130 208 217
104 10 8 yoke_upper
139 130 208 217 140 131 209 218
105 10 8 yoke_upper
140 131 209 218 141 132 210 219
106 10 8 yoke_upper
141 132 210 219 142 133 211 220
107 10 8 yoke_upper
142 133 211 220 143 134 212 221
108 10 8 yoke_upper
143 134 212 221 144 135 213 222
109 10 8 yoke_upper
144 135 213 222 145 136 214 223
110 10 8 yoke_upper
145 136 214 223 126 124 204 205
131 10 8 yoke_upper
11 17 23 19 128 186 245 206
132 10 8 yoke_upper
128 186 245 206 129 187 246 207
133 10 8 yoke_upper
129 187 246 207 130 188 247 208
134 10 8 yoke_upper
130 188 247 208 131 189 248 209
135 10 8 yoke_upper
131 189 248 209 132 190 249 210
136 10 8 yoke_upper
132 190 249 210 133 191 250 211
137 10 8 yoke_upper
133 191 250 211 134 192 251 212
138 10 8 yoke_upper
134 192 251 212 135 193 252 213
139 10 8 yoke_upper
135 193 252 213 136 194 253 214
140 10 8 yoke_upper
136 194 253 214 124 166 244 204
141 10 8 yoke_upper
17 15 21 23 186 168 226 245
142 10 8 yoke_upper
186 168 226 245 187 169 227 246
143 10 8 yoke_upper
187 169 227 246 188 170 228 247
144 10 8 yoke_upper
188 170 228 247 189 171 229 248
145 10 8 yoke_upper
189 171 229 248 190 172 230 249
146 10 8 yoke_upper
190 172 230 249 191 173 231 250
147 10 8 yoke_upper
191 173 231 250 192 174 232 251
148 10 8 yoke_upper
192 174 232 251 193 175 233 252
149 10 8 yoke_upper
193 175 233 252 194 176 234 253
150 10 8 yoke_upper
194 176 234 253 166 164 224 244
111 10 8 yoke_right
7 10 22 16 77 115 235 177
112 10 8 yoke_right
77 115 235 177 78 116 236 178
113 10 8 yoke_right
78 116 236 178 79 117 237 179
114 10 8 yoke_right
79 117 237 179 80 118 238 180
115 10 8 yoke_right
80 118 238 180 81 119 239 181
116 10 8 yoke_right
81 119 239 181 82 120 240 182
117 10 8 yoke_right
82 120 240 182 83 121 241 183
118 10 8 yoke_right
83 121 241 183 84 122 242 184
119 10 8 yoke_right
84 122 242 184 85 123 243 185
120 10 8 yoke_right
85 123 243 185 66 105 225 165
121 10 8 yoke_right
16 22 21 15 177 235 226 168
122 10 8 yoke_right
177 235 226 168 178 236 227 169
123 10 8 yoke_right
178 236 227 169 179 237 228 170
124 10 8 yoke_right
179 237 228 170 180 238 229 171
125 10 8 yoke_right
180 238 229 171 181 239 230 172
126 10 8 yoke_right
181 239 230 172 182 240 231 173
127 10 8 yoke_right
182 240 231 173 183 241 232 174
128 10 8 yoke_right
183 241 232 174 184 242 233 175
129 10 8 yoke_right
184 242 233 175 185 243 234 176
130 10 8 yoke_right
185 243 234 176 165 225 224 164
31 10 8 magnet
5 9 10 7 68 106 115 77
32 10 8 magnet
68 106 115 77 69 107 116 78
33 10 8 magnet
69 107 116 78 70 108 117 79
34 10 8 magnet
70 108 117 79 71 109 118 80
35 10 8 magnet
71 109 118 80 72 110 119 81
36 10 8 magnet
72 110 119 81 73 111 120 82
37 10 8 magnet
73 111 120 82 74 112 121 83
38 10 8 magnet
74 112 121 83 75 113 122 84
39 10 8 magnet
75 113 122 84 76 114 123 85
40 10 8 magnet
76 114 123 85 64 104 105 66
1 10 8 air
1 2 3 4 28 37 46 55
2 10 8 air
28 37 46 55 29 38 47 56
3 10 8 air
29 38 47 56 30 39 48 57
4 10 8 air
30 39 48 57 31 40 49 58
5 10 8 air
31 40 49 58 32 41 50 59
6 10 8 air
32 41 50 59 33 42 51 60
7 10 8 air
33 42 51 60 34 43 52 61
8 10 8 air
34 43 52 61 35 44 53 62
9 10 8 air
35 44 53 62 36 45 54 63
10 10 8 air
36 45 54 63 24 25 26 27
11 10 8 air
2 6 8 3 37 86 95 46
12 10 8 air
37 86 95 46 38 87 96 47
13 10 8 air
38 87 96 47 39 88 97 48
14 10 8 air
39 88 97 48 40 89 98 49
15 10 8 air
40 89 98 49 41 90 99 50
16 10 8 air
41 90 99 50 42 91 100 51
17 10 8 air
42 91 100 51 43 92 101 52
18 10 8 air
43 92 101 52 44 93 102 53
19 10 8 air
44 93 102 53 45 94 103 54
20 10 8 air
45 94 103 54 25 65 67 26
21 10 8 air
6 5 7 8 86 68 77 95
22 10 8 air
86 68 77 95 87 69 78 96
23 10 8 air
87 69 78 96 88 70 79 97
24 10 8 air
88 70 79 97 89 71 80 98
25 10 8 air
89 71 80 98 90 72 81 99
26 10 8 air
90 72 81 99 91 73 82 100
27 10 8 air
91 73 82 100 92 74 83 101
28 10 8 air
92 74 83 101 93 75 84 102
29 10 8 air
93 75 84 102 94 76 85 103
30 10 8 air
94 76 85 103 65 64 66 67
41 10 8 air
4 3 12 14 55 46 146 155
42 10 8 air
55 46 146 155 56 47 147 156
43 10 8 air
56 47 147 156 57 48 148 157
44 10 8 air
57 48 148 157 58 49 149 158
45 10 8 air
58 49 149 158 59 50 150 159
46 10 8 air
59 50 150 159 60 51 151 160
47 10 8 air
60 51 151 160 61 52 152 161
48 10 8 air
61 52 152 161 62 53 153 162
49 10 8 air
62 53 153 162 63 54 154 163
50 10 8 air
63 54 154 163 27 26 125 127
51 10 8 air
14 12 11 13 155 146 128 137
52 10 8 air
155 146 128 137 156 147 129 138
53 10 8 air
156 147 129 138 157 148 130 139
54 10 8 air
157 148 130 139 158 149 131 140
55 10 8 air
158 149 131 140 159 150 132 141
56 10 8 air
159 150 132 141 160 151 133 142
57 10 8 air
160 151 133 142 161 152 134 143
58 10 8 air
161 152 134 143 162 153 135 144
59 10 8 air
162 153 135 144 163 154 136 145
60 10 8 air
163 154 136 145 127 125 124 126
61 10 8 air
3 8 18 12 46 95 195 146
62 10 8 air
46 95 195 146 47 96 196 147
63 10 8 air
47 96 196 147 48 97 197 148
64 10 8 air
48 97 197 148 49 98 198 149
65 10 8 air
49 98 198 149 50 99 199 150
66 10 8 air
50 99 199 150 51 100 200 151
67 10 8 air
51 100 200 151 52 101 201 152
68 10 8 air
52 101 201 152 53 102 202 153
69 10 8 air
53 102 202 153 54 103 203 154
70 10 8 air
54 103 203 154 26 67 167 125
71 10 8 air
8 7 16 18 95 77 177 195
72 10 8 air
95 77 177 195 96 78 178 196
73 10 8 air
96 78 178 196 97 79 179 197
74 10 8 air
97 79 179 197 98 80 180 198
75 10 8 air
98 80 180 198 99 81 181 199
76 10 8 air
99 81 181 199 100 82 182 200
77 10 8 air
100 82 182 200 101 83 183 201
78 10 8 air
101 83 183 201 102 84 184 202
79 10 8 air
102 84 184 202 103 85 185 203
80 10 8 air
103 85 185 203 67 66 165 167
81 10 8 air
12 18 17 11 146 195 186 128
82 10 8 air
146 195 186 128 147 196 187 129
83 10 8 air
147 196 187 129 148 197 188 130
84 10 8 air
148 197 188 130 149 198 189 131
85 10 8 air
149 198 189 131 150 199 190 132
86 10 8 air
150 199 190 132 151 200 191 133
87 10 8 air
151 200 191 133 152 201 192 134
88 10 8 air
152 201 192 134 153 202 193 135
89 10 8 air
153 202 193 135 154 203 194 136
90 10 8 air
154 203 194 136 125 167 166 124
91 10 8 air
18 16 15 17 195 177 168 186
92 10 8 air
195 177 168 186 196 178 169 187
93 10 8 air
196 178 169 187 197 179 170 188
94 10 8 air
197 179 170 188 198 180 171 189
95 10 8 air
198 180 171 189 199 181 172 190
96 10 8 air
199 181 172 190 200 182 173 191
97 10 8 air
200 182 173 191 201 183 174 192
98 10 8 air
201 183 174 192 202 184 175 193
99 10 8 air
202 184 175 193 203 185 176 194
100 10 8 air
203 185 176 194 167 165 164 166
151 10 8 air
24 25 26 27 254 255 256 257
152 10 8 air
25 65 67 26 255 259 261 256
153 10 8 air
65 64 66 67 259 258 260 261
154 10 8 air
64 104 105 66 258 262 263 260
155 10 8 air
27 26 125 127 257 256 265 267
156 10 8 air
127 125 124 126 267 265 264 266
157 10 8 air
26 67 167 125 256 261 271 265
158 10 8 air
67 66 165 167 261 260 269 271
159 10 8 air
125 167 166 124 265 271 270 264
160 10 8 air
167 165 164 166 271 269 268 270
161 10 8 air
126 124 204 205 266 264 272 273
162 10 8 air
66 105 225 165 260 263 275 269
163 10 8 air
165 225 224 164 269 275 274 268
164 10 8 air
124 166 244 204 264 270 276 272
165 10 8 air
166 164 224 244 270 268 274 276
166 10 8 air
1 4 3 2 277 280 279 278
167 10 8 air
2 3 8 6 278 279 284 282
168 10 8 air
6 8 7 5 282 284 283 281
169 10 8 air
5 7 10 9 281 283 286 285
170 10 8 air
4 14 12 3 280 290 288 279
171 10 8 air
14 13 11 12 290 289 287 288
172 10 8 air
3 12 18 8 279 288 294 284
173 10 8 air
8 18 16 7 284 294 292 283
174 10 8 air
12 11 17 18 288 287 293 294
175 10 8 air
18 17 15 16 294 293 291 292
176 10 8 air
13 20 19 11 289 296 295 287
177 10 8 air
7 16 22 10 283 292 298 286
178 10 8 air
16 15 21 22 292 291 297 298
179 10 8 air
11 19 23 17 287 295 299 293
180 10 8 air
17 23 21 15 293 299 297 291

[2D Elements]
#ElemNr  ElemType  NrOfNodes  Level
#Node1 Node2 ... NodeNrOfNodes
181 6 4 bound
123 105 104 114
182 6 4 bound
122 123 114 113
183 6 4 bound
121 122 113 112
184 6 4 bound
120 121 112 111
185 6 4 bound
119 120 111 110
186 6 4 bound
118 119 110 109
187 6 4 bound
117 118 109 108
188 6 4 bound
116 117 108 107
189 6 4 bound
115 116 107 106
190 6 4 bound
10 115 106 9
191 6 4 bound
223 205 204 214
192 6 4 bound
222 223 214 213
193 6 4 bound
221 222 213 212
194 6 4 bound
220 221 212 211
195 6 4 bound
219 220 211 210
196 6 4 bound
218 219 210 209
197 6 4 bound
217 218 209 208
198 6 4 bound
216 217 208 207
199 6 4 bound
215 216 207 206
200 6 4 bound
20 215 206 19
201 6 4 bound
234 224 225 243
202 6 4 bound
233 234 243 242
203 6 4 bound
232 233 242 241
204 6 4 bound
231 232 241 240
205 6 4 bound
230 231 240 239
206 6 4 bound
229 230 239 238
207 6 4 bound
228 229 238 237
208 6 4 bound
227 228 237 236
209 6 4 bound
226 227 236 235
210 6 4 bound
21 226 235 22
211 6 4 bound
243 225 105 123
212 6 4 bound
242 243 123 122
213 6 4 bound
241 242 122 121
214 6 4 bound
240 241 121 120
215 6 4 bound
239 240 120 119
216 6 4 bound
238 239 119 118
217 6 4 bound
237 238 118 117
218 6 4 bound
236 237 117 116
219 6 4 bound
235 236 116 115
220 6 4 bound
22 235 115 10
221 6 4 bound
253 244 224 234
222 6 4 bound
252 253 234 233
223 6 4 bound
251 252 233 232
224 6 4 bound
250 251 232 231
225 6 4 bound
249 250 231 230
226 6 4 bound
248 249 230 229
227 6 4 bound
247 248 229 228
228 6 4 bound
246 247 228 227
229 6 4 bound
245 246 227 226
230 6 4 bound
23 245 226 21
231 6 4 bound
214 204 244 253
232 6 4 bound
213 214 253 252
233 6 4 bound
212 213 252 251
234 6 4 bound
211 212 251 250
235 6 4 bound
210 211 250 249
236 6 4 bound
209 210 249 248
237 6 4 bound
208 209 248 247
238 6 4 bound
207 208 247 246
239 6 4 bound
206 207 246 245
240 6 4 bound
19 206 245 23
241 6 4 bound
256 257 254 255
242 6 4 bound
260 261 259 258
243 6 4 bound
261 256 255 259
244 6 4 bound
263 260 258 262
245 6 4 bound
105 263 262 104
246 6 4 bound
264 266 267 265
247 6 4 bound
265 267 257 256
248 6 4 bound
268 270 271 269
249 6 4 bound
270 264 265 271
250 6 4 bound
269 271 261 260
251 6 4 bound
271 265 256 261
252 6 4 bound
272 273 266 264
253 6 4 bound
205 273 272 204
254 6 4 bound
274 268 269 275
255 6 4 bound
275 269 260 263
256 6 4 bound
224 274 275 225
257 6 4 bound
225 275 263 105
258 6 4 bound
274 276 270 268
259 6 4 bound
276 272 264 270
260 6 4 bound
244 276 274 224
261 6 4 bound
204 272 276 244
262 6 4 bound
278 279 280 277
263 6 4 bound
281 283 284 282
264 6 4 bound
282 284 279 278
265 6 4 bound
285 286 283 281
266 6 4 bound
285 9 10 286
267 6 4 bound
288 287 289 290
268 6 4 bound
279 288 290 280
269 6 4 bound
292 291 293 294
270 6 4 bound
294 293 287 288
271 6 4 bound
283 292 294 284
272 6 4 bound
284 294 288 279
273 6 4 bound
287 295 296 289
274 6 4 bound
295 19 20 296
275 6 4 bound
298 297 291 292
276 6 4 bound
286 298 292 283
277 6 4 bound
298 22 21 297
278 6 4 bound
286 10 22 298
279 6 4 bound
291 297 299 293
280 6 4 bound
293 299 295 287
281 6 4 bound
297 21 23 299
282 6 4 bound
299 23 19 295

[1D Elements]
#ElemNr  ElemType  NrOfNodes  Level
#Node1 Node2 ... NodeNrOfNodes

[Node BC]
#NodeNr Level

[Save Nodes]
#NodeNr Level

[Save Elements]
#ElemNr Level

