$MeshFormat
2.2 0 8
$EndMeshFormat
$PhysicalNames
3
2 2 "source"
2 3 "abc"
3 1 "inner"
$EndPhysicalNames
$Nodes
80
1 0 -0.02631578947368421 0
2 1 -0.02631578947368421 0
3 1 0.02631578947368421 0
4 0 0.02631578947368421 0
5 0 -0.02631578947368421 0.05
6 1 -0.02631578947368421 0.05
7 1 0.02631578947368421 0.05
8 0 0.02631578947368421 0.05
9 0.05263157894726195 -0.02631578947368421 0
10 0.1052631578945429 -0.02631578947368421 0
11 0.1578947368417851 -0.02631578947368421 0
12 0.2105263157889999 -0.02631578947368421 0
13 0.2631578947362146 -0.02631578947368421 0
14 0.3157894736834294 -0.02631578947368421 0
15 0.3684210526306442 -0.02631578947368421 0
16 0.421052631577859 -0.02631578947368421 0
17 0.4736842105250738 -0.02631578947368421 0
18 0.5263157894724348 -0.02631578947368421 0
19 0.5789473684199421 -0.02631578947368421 0
20 0.6315789473674494 -0.02631578947368421 0
21 0.6842105263149566 -0.02631578947368421 0
22 0.7368421052624637 -0.02631578947368421 0
23 0.789473684209971 -0.02631578947368421 0
24 0.8421052631574782 -0.02631578947368421 0
25 0.8947368421049855 -0.02631578947368421 0
26 0.9473684210524927 -0.02631578947368421 0
27 0.9473684210524125 0.02631578947368421 0
28 0.8947368421048248 0.02631578947368421 0
29 0.8421052631576025 0.02631578947368421 0
30 0.7894736842105994 0.02631578947368421 0
31 0.7368421052635962 0.02631578947368421 0
32 0.6842105263165927 0.02631578947368421 0
33 0.6315789473695894 0.02631578947368421 0
34 0.5789473684225861 0.02631578947368421 0
35 0.5263157894755828 0.02631578947368421 0
36 0.4736842105282874 0.02631578947368421 0
37 0.4210526315806998 0.02631578947368421 0
38 0.3684210526331123 0.02631578947368421 0
39 0.3157894736855248 0.02631578947368421 0
40 0.2631578947379374 0.02631578947368421 0
41 0.21052631579035 0.02631578947368421 0
42 0.1578947368427625 0.02631578947368421 0
43 0.1052631578951749 0.02631578947368421 0
44 0.05263157894758741 0.02631578947368421 0
45 0.05263157894726195 -0.02631578947368421 0.05
46 0.1052631578945429 -0.02631578947368421 0.05
47 0.1578947368417851 -0.02631578947368421 0.05
48 0.2105263157889999 -0.02631578947368421 0.05
49 0.2631578947362146 -0.02631578947368421 0.05
50 0.3157894736834294 -0.02631578947368421 0.05
51 0.3684210526306442 -0.02631578947368421 0.05
52 0.421052631577859 -0.02631578947368421 0.05
53 0.4736842105250738 -0.02631578947368421 0.05
54 0.5263157894724348 -0.02631578947368421 0.05
55 0.5789473684199421 -0.02631578947368421 0.05
56 0.6315789473674494 -0.02631578947368421 0.05
57 0.6842105263149566 -0.02631578947368421 0.05
58 0.7368421052624637 -0.02631578947368421 0.05
59 0.789473684209971 -0.02631578947368421 0.05
60 0.8421052631574782 -0.02631578947368421 0.05
61 0.8947368421049855 -0.02631578947368421 0.05
62 0.9473684210524927 -0.02631578947368421 0.05
63 0.9473684210524125 0.02631578947368421 0.05
64 0.8947368421048248 0.02631578947368421 0.05
65 0.8421052631576025 0.02631578947368421 0.05
66 0.7894736842105994 0.02631578947368421 0.05
67 0.7368421052635962 0.02631578947368421 0.05
68 0.6842105263165927 0.02631578947368421 0.05
69 0.6315789473695894 0.02631578947368421 0.05
70 0.5789473684225861 0.02631578947368421 0.05
71 0.5263157894755828 0.02631578947368421 0.05
72 0.4736842105282874 0.02631578947368421 0.05
73 0.4210526315806998 0.02631578947368421 0.05
74 0.3684210526331123 0.02631578947368421 0.05
75 0.3157894736855248 0.02631578947368421 0.05
76 0.2631578947379374 0.02631578947368421 0.05
77 0.21052631579035 0.02631578947368421 0.05
78 0.1578947368427625 0.02631578947368421 0.05
79 0.1052631578951749 0.02631578947368421 0.05
80 0.05263157894758741 0.02631578947368421 0.05
$EndNodes
$Elements
118
1 2 2 3 44 6 2 7
2 2 2 3 44 2 3 7
3 2 2 2 52 8 4 1
4 2 2 2 52 8 1 5
5 4 2 1 1 1 9 4 45
6 4 2 1 1 45 5 8 1
7 4 2 1 1 4 1 45 8
8 4 2 1 1 4 9 44 45
9 4 2 1 1 45 8 80 4
10 4 2 1 1 44 4 45 80
11 4 2 1 1 9 10 44 45
12 4 2 1 1 46 45 80 44
13 4 2 1 1 10 45 46 44
14 4 2 1 1 44 10 43 79
15 4 2 1 1 46 80 79 44
16 4 2 1 1 10 44 46 79
17 4 2 1 1 10 11 43 79
18 4 2 1 1 47 46 79 10
19 4 2 1 1 11 10 47 79
20 4 2 1 1 43 11 42 79
21 4 2 1 1 47 79 78 11
22 4 2 1 1 11 79 78 42
23 4 2 1 1 11 12 42 78
24 4 2 1 1 48 47 78 12
25 4 2 1 1 12 47 78 11
26 4 2 1 1 42 12 41 78
27 4 2 1 1 48 78 77 12
28 4 2 1 1 12 78 77 41
29 4 2 1 1 12 13 41 49
30 4 2 1 1 49 48 77 12
31 4 2 1 1 41 12 49 77
32 4 2 1 1 41 13 40 49
33 4 2 1 1 49 77 76 41
34 4 2 1 1 40 41 49 76
35 4 2 1 1 13 14 40 49
36 4 2 1 1 50 49 76 14
37 4 2 1 1 14 49 76 40
38 4 2 1 1 40 14 39 75
39 4 2 1 1 50 76 75 14
40 4 2 1 1 14 76 75 40
41 4 2 1 1 14 15 39 75
42 4 2 1 1 51 50 75 15
43 4 2 1 1 15 50 75 14
44 4 2 1 1 39 15 38 75
45 4 2 1 1 51 75 74 15
46 4 2 1 1 15 75 74 38
47 4 2 1 1 15 16 38 74
48 4 2 1 1 52 51 74 16
49 4 2 1 1 16 51 74 15
50 4 2 1 1 38 16 37 74
51 4 2 1 1 52 74 73 16
52 4 2 1 1 16 74 73 37
53 4 2 1 1 16 17 37 73
54 4 2 1 1 53 52 73 16
55 4 2 1 1 17 16 53 73
56 4 2 1 1 37 17 36 73
57 4 2 1 1 53 73 72 36
58 4 2 1 1 17 73 53 36
59 4 2 1 1 17 18 36 54
60 4 2 1 1 54 53 72 36
61 4 2 1 1 17 53 54 36
62 4 2 1 1 36 18 35 71
63 4 2 1 1 54 72 71 36
64 4 2 1 1 18 36 54 71
65 4 2 1 1 18 19 35 71
66 4 2 1 1 55 54 71 19
67 4 2 1 1 19 54 71 18
68 4 2 1 1 35 19 34 70
69 4 2 1 1 55 71 70 19
70 4 2 1 1 19 71 70 35
71 4 2 1 1 19 20 34 70
72 4 2 1 1 56 55 70 20
73 4 2 1 1 20 55 70 19
74 4 2 1 1 34 20 33 70
75 4 2 1 1 56 70 69 20
76 4 2 1 1 20 70 69 33
77 4 2 1 1 20 21 33 57
78 4 2 1 1 57 56 69 20
79 4 2 1 1 33 20 57 69
80 4 2 1 1 33 21 32 57
81 4 2 1 1 57 69 68 32
82 4 2 1 1 33 69 57 32
83 4 2 1 1 21 22 32 58
84 4 2 1 1 58 57 68 32
85 4 2 1 1 21 57 58 32
86 4 2 1 1 32 22 31 58
87 4 2 1 1 58 68 67 32
88 4 2 1 1 31 32 58 67
89 4 2 1 1 22 23 31 58
90 4 2 1 1 59 58 67 31
91 4 2 1 1 23 58 59 31
92 4 2 1 1 31 23 30 66
93 4 2 1 1 59 67 66 31
94 4 2 1 1 23 31 59 66
95 4 2 1 1 23 24 30 60
96 4 2 1 1 60 59 66 23
97 4 2 1 1 30 23 60 66
98 4 2 1 1 30 24 29 60
99 4 2 1 1 60 66 65 30
100 4 2 1 1 29 30 60 65
101 4 2 1 1 24 25 29 60
102 4 2 1 1 61 60 65 25
103 4 2 1 1 25 60 65 29
104 4 2 1 1 29 25 28 65
105 4 2 1 1 61 65 64 25
106 4 2 1 1 25 65 64 28
107 4 2 1 1 25 26 28 64
108 4 2 1 1 62 61 64 25
109 4 2 1 1 26 25 62 64
110 4 2 1 1 28 26 27 64
111 4 2 1 1 62 64 63 27
112 4 2 1 1 26 64 62 27
113 4 2 1 1 26 2 27 62
114 4 2 1 1 6 62 63 2
115 4 2 1 1 2 62 63 27
116 4 2 1 1 27 2 3 63
117 4 2 1 1 6 63 7 2
118 4 2 1 1 2 63 7 3
$EndElements
