
0                         7.815295611559289E-4
8.33E-4                   7.728984969902463E-4
0.001667                  7.691192807315613E-4
0.0025                    7.63785854968934E-4
0.003333                  7.581271128604997E-4
0.004167                  7.524308533526541E-4
0.005                     7.467424048955186E-4
0.005833                  7.410707925749351E-4
0.006667                  7.354197228837915E-4
0.0075                    7.297842413337747E-4
0.008333                  7.241669401936628E-4
0.009167                  7.185703197474479E-4
0.01                      7.129893722782457E-4
0.010833                  7.07426634758362E-4
0.011667                  7.018845852084964E-4
0.0125                    6.963582556723078E-4
0.013333                  6.908501604284779E-4
0.014167                  6.853627544267126E-4
0.015                     6.798911110276652E-4
0.015833                  6.744377215370442E-4
0.016667                  6.690050178705619E-4
0.0175                    6.635881148701101E-4
0.018333                  6.58189480836449E-4
0.019167                  6.528115245832038E-4
0.02                      6.474494026421709E-4
0.020833                  6.421055602243001E-4
0.021667                  6.36782383011781E-4
0.0225                    6.314750693938258E-4
0.023333                  6.261860414553086E-4
0.024167                  6.209176617112807E-4
0.025                     6.156651705620485E-4
0.025833                  6.104309669187055E-4
0.026667                  6.052173901070337E-4
0.0275                    6.000197226779618E-4
0.028333                  5.948403403458792E-4
0.029167                  5.896815592147483E-4
0.03                      5.845387041177951E-4
0.030833                  5.794141275432869E-4
0.031667                  5.743101223582286E-4
0.0325                    5.692220558064387E-4
0.033333                  5.641522571167504E-4
0.034167                  5.591029959111621E-4
0.035                     5.540696819578032E-4
0.035833                  5.490546211798181E-4
0.036667                  5.440600599756053E-4
0.0375                    5.390814507380608E-4
0.038333                  5.341210760911637E-4
0.039167                  5.29181159161694E-4
0.04                      5.242571950559182E-4
0.040833                  5.193514431095794E-4
0.041667                  5.144661031884625E-4
0.0425                    5.095967131872642E-4
0.043333                  5.047455091368866E-4
0.044167                  4.99914667672628E-4
0.045                     4.950997695265152E-4
0.045833                  4.90303027416867E-4
0.046667                  4.8552659477118197E-4
0.0475                    4.807660952089012E-4
0.048333                  4.7602371817406254E-4
0.049167                  4.7130159387338697E-4
0.05                      4.6659538888999056E-4
0.050833                  4.6190726935873097E-4
0.051667                  4.5723934234265516E-4
0.0525                    4.525873173378148E-4
0.053333                  4.4795333727262206E-4
0.054167                  4.433394860627589E-4
0.055                     4.38741516164249E-4
0.055833                  4.3416154729102274E-4
0.056667                  4.2960164023820376E-4
0.0575                    4.2505759046635827E-4
0.058333                  4.2053149447764484E-4
0.059167                  4.160253900018983E-4
0.06                      4.115351154900312E-4
0.060833                  4.070627442725847E-4
0.061667                  4.026102910640471E-4
0.0625                    3.981736372883164E-4
0.063333                  3.937548331824425E-4
0.064167                  3.893558703797637E-4
0.065                     3.8497267341072505E-4
0.065833                  3.806072693134706E-4
0.066667                  3.7626162684539316E-4
0.0675                    3.719317134571291E-4
0.068333                  3.676195331566234E-4
0.069167                  3.633270318267658E-4
0.07                      3.590502198352244E-4
0.070833                  3.5479107811981E-4
0.071667                  3.5055152993549246E-4
0.0725                    3.463276282223244E-4
0.073333                  3.4212133121642595E-4
0.074167                  3.379345393948958E-4
0.075                     3.33763348527432E-4
0.075833                  3.2960969382832733E-4
0.076667                  3.2547545315463825E-4
0.0775                    3.213567649957734E-4
0.078333                  3.172555418683026E-4
0.079167                  3.131736389303054E-4
0.08                      3.0910723737406196E-4
0.080833                  3.0505822691717985E-4
0.081667                  3.010284402842178E-4
0.0825                    2.9701410110430577E-4
0.083333                  2.9301707656672455E-4
0.084167                  2.8903917686908545E-4
0.085                     2.8507666821641346E-4
0.085833                  2.8113139507876143E-4
0.086667                  2.7720514539067865E-4
0.0875                    2.732942276735796E-4
0.088333                  2.694004639565037E-4
0.089167                  2.655256198506525E-4
0.09                      2.61666046207154E-4
0.090833                  2.578235425525364E-4
0.091667                  2.5399985240928425E-4
0.0925                    2.50191368704231E-4
0.093333                  2.463998686973486E-4
0.094167                  2.4262707377316795E-4
0.095                     2.388694189522492E-4
0.095833                  2.3512865917707992E-4
0.096667                  2.3140649393373796E-4
0.0975                    2.276994000655465E-4
0.098333                  2.240091104346969E-4
0.099167                  2.2033730258951405E-4
0.1                       2.1668049520727326E-4
0.100833                  2.1304039900365703E-4
0.101667                  2.0941866985139338E-4
0.1025                    2.0581186797014912E-4
0.103333                  2.0222168220607905E-4
0.104167                  1.9864974669109374E-4
0.105                     1.9509266316774618E-4
0.105833                  1.9155209855772383E-4
0.106667                  1.8802966558400443E-4
0.1075                    1.845220071498821E-4
0.108333                  1.8103076853948405E-4
0.109167                  1.7755754092807727E-4
0.11                      1.7409900850294682E-4
0.110833                  1.7065679482154342E-4
0.111667                  1.6723246980276328E-4
0.1125                    1.6382275853748493E-4
0.113333                  1.604292631380186E-4
0.114167                  1.5705353225852826E-4
0.115                     1.5369233185527634E-4
0.115833                  1.5034724255539764E-4
0.116667                  1.4701979206457668E-4
0.1175                    1.4370678679649255E-4
0.118333                  1.4040978626134082E-4
0.119167                  1.3713029702026216E-4
0.12                      1.3386516610301225E-4
0.120833                  1.3061593172721122E-4
0.121667                  1.2738407971570013E-4
0.1225                    1.2416649729809584E-4
0.123333                  1.2096470167204617E-4
0.124167                  1.1778015802616109E-4
0.125                     1.146097933900545E-4
0.125833                  1.1145510418224441E-4
0.126667                  1.0831753493417644E-4
0.1275                    1.0519405279243954E-4
0.128333                  1.0208613324721179E-4
0.129167                  9.899520030886198E-5
0.13                      9.591826081340696E-5
0.130833                  9.285676954940416E-5
0.131667                  8.981213034295239E-5
0.1325                    8.678138936701803E-5
0.133333                  8.376598088010546E-5
0.134167                  8.076728853060012E-5
0.135                     7.778239771491392E-5
0.135833                  7.481272230230219E-5
0.136667                  7.185962596124934E-5
0.1375                    6.892023299258624E-5
0.138333                  6.59959370785245E-5
0.139167                  6.308808189438917E-5
0.14                      6.019383062781119E-5
0.140833                  5.731455673382122E-5
0.141667                  5.445158426623355E-5
0.1425                    5.1602114744502005E-5
0.143333                  4.8767501781351823E-5
0.144167                  4.594904990737038E-5
0.145                     4.31439988081911E-5
0.145833                  4.035368227052556E-5
0.146667                  3.7579385411564514E-5
0.1475                    3.481838593075349E-5
0.148333                  3.20719979411139E-5
0.149167                  2.9341487291719578E-5
0.15                      2.662416941592463E-5
0.150833                  2.3921338866308098E-5
0.151667                  2.1234242489706182E-5
0.1525                    1.8560233077372288E-5
0.153333                  1.5900585951685996E-5
0.154167                  1.3256528816217214E-5
0.155                     1.062545190838184E-5
0.155833                  8.00861119875621E-6
0.156667                  5.4072155897908495E-6
0.1575                    2.8186923290517967E-6
0.158333                  2.442783108718006E-7
0.159167                  -2.3148362159401816E-6
0.16                      -4.861187294239748E-6
0.160833                  -7.393556984393032E-6
0.161667                  -9.91077342525139E-6
0.1625                    -1.2415336334275577E-5
0.163333                  -1.4906046392881479E-5
0.164167                  -1.738175025998817E-5
0.165                     -1.9844911259177656E-5
0.165833                  -2.2294348804364634E-5
0.166667                  -2.472892772829526E-5
0.1675                    -2.715107540874711E-5
0.168333                  -2.9559629713524393E-5
0.169167                  -3.1953473494350015E-5
0.17                      -3.433499849721128E-5
0.170833                  -3.6703060937992625E-5
0.171667                  -3.905656139509177E-5
0.1725                    -4.139785628294267E-5
0.173333                  -4.3725819976457494E-5
0.174167                  -4.6039370849557834E-5
0.175                     -4.8340830168409976E-5
0.175833                  -5.0629090110300514E-5
0.176667                  -5.2903086770727435E-5
0.1775                    -5.516510646805016E-5
0.178333                  -5.7414059330689256E-5
0.179167                  -5.964889877806896E-5
0.18                      -6.187187658594239E-5
0.180833                  -6.408192058790988E-5
0.181667                  -6.62780012720194E-5
0.1825                    -6.84623362856234E-5
0.183333                  -7.063387082315023E-5
0.184167                  -7.279159265604575E-5
0.185                     -7.493768527911643E-5
0.185833                  -7.70711112652561E-5
0.186667                  -7.919087522749751E-5
0.1875                    -8.129912700057039E-5
0.188333                  -8.33948463427091E-5
0.189167                  -8.547705455936684E-5
0.19                      -8.754786813387258E-5
0.190833                  -8.960628382368181E-5
0.191667                  -9.16513394571185E-5
0.1925                    -9.368511837622874E-5
0.193333                  -9.570663422987788E-5
0.194167                  -9.771494118863647E-5
0.195                     -9.971208995088563E-5
0.195833                  -1.0169711058986506E-4
0.196667                  -1.0366907362413995E-4
0.1975                    -1.0562999715519849E-4
0.198333                  -1.0757892787942013E-4
0.199167                  -1.0951495230359791E-4
0.2                       -1.1144005633429938E-4
0.200833                  -1.1335330303870048E-4
0.201667                  -1.152537946560855E-4
0.2025                    -1.1714348533646434E-4
0.203333                  -1.1902145413558836E-4
0.204167                  -1.2088681917063624E-4
0.205                     -1.2274150300958662E-4
0.205833                  -1.2458460061262665E-4
0.206667                  -1.264152456241724E-4
0.2075                    -1.2823532924068897E-4
0.208333                  -1.300439623764947E-4
0.209167                  -1.3184029399704308E-4
0.21                      -1.3362618430828396E-4
0.210833                  -1.3540075985930328E-4
0.211667                  -1.371631848002345E-4
0.2125                    -1.3891528868768179E-4
0.213333                  -1.4065621356726702E-4
0.214167                  -1.4238513849471068E-4
0.215                     -1.4410386280069414E-4
0.215833                  -1.4581154368723632E-4
0.216667                  -1.4750737522080675E-4
0.2175                    -1.4919312649189977E-4
0.218333                  -1.5086796994260993E-4
0.219167                  -1.5253111430185929E-4
0.22                      -1.541842988979447E-4
0.220833                  -1.5582671112419888E-4
0.221667                  -1.574575742092351E-4
0.2225                    -1.5907859806155573E-4
0.223333                  -1.6068898488678544E-4
0.224167                  -1.6228797213843217E-4
0.225                     -1.638772407290335E-4
0.225833                  -1.6545600733735484E-4
0.226667                  -1.6702352374166674E-4
0.2275                    -1.6858144185087097E-4
0.228333                  -1.7012899289941072E-4
0.229167                  -1.7166544264525825E-4
0.23                      -1.7319241447034706E-4
0.230833                  -1.7470915387462522E-4
0.231667                  -1.7621494043493504E-4
0.2325                    -1.7771136934782757E-4
0.233333                  -1.7919770026390442E-4
0.234167                  -1.80673226288387E-4
0.235                     -1.8213951479027413E-4
0.235833                  -1.8359583925749645E-4
0.236667                  -1.8504150652415787E-4
0.2375                    -1.864780561583126E-4
0.238333                  -1.8790477547075073E-4
0.239167                  -1.8932098457891925E-4
0.24                      -1.9072819578115003E-4
0.240833                  -1.9212570999864673E-4
0.241667                  -1.9351286047815302E-4
0.2425                    -1.9489113257398138E-4
0.243333                  -1.962598406371107E-4
0.244167                  -1.9761833086649728E-4
0.245                     -1.9896806190884206E-4
0.245833                  -2.0030836141913416E-4
0.246667                  -2.016385883761112E-4
0.2475                    -2.0296017520529818E-4
0.248333                  -2.0427246243754225E-4
0.249167                  -2.0557482178822455E-4
0.25                      -2.068686596387724E-4
0.250833                  -2.0815332945278757E-4
0.251667                  -2.0942821524363084E-4
0.2525                    -2.1069469808531632E-4
0.253333                  -2.119521437719858E-4
0.254167                  -2.1319994889788333E-4
0.255                     -2.1443946865302562E-4
0.255833                  -2.1567008194104154E-4
0.256667                  -2.168911972841782E-4
0.2575                    -2.1810414475329737E-4
0.258333                  -2.193083155427776E-4
0.259167                  -2.2050313035070455E-4
0.26                      -2.2168989450517461E-4
0.260833                  -2.2286801113312717E-4
0.261667                  -2.2403691269526644E-4
0.2625                    -2.25197880366674E-4
0.263333                  -2.2635032923221771E-4
0.264167                  -2.274937034693075E-4
0.265                     -2.28629259577458E-4
0.265833                  -2.2975642518440585E-4
0.266667                  -2.3087465562801108E-4
0.2675                    -2.3198518355509615E-4
0.268333                  -2.330874481534554E-4
0.269167                  -2.341809163920565E-4
0.27                      -2.352667973477909E-4
0.270833                  -2.3634454146791663E-4
0.271667                  -2.3741362684297907E-4
0.2725                    -2.384752395984044E-4
0.273333                  -2.3952884148165102E-4
0.274167                  -2.4057392165193536E-4
0.275                     -2.4161164280065656E-4
0.275833                  -2.4264147844073398E-4
0.276667                  -2.4366292838315406E-4
0.2775                    -2.446771326150707E-4
0.278333                  -2.4568357564221197E-4
0.279167                  -2.466817682176955E-4
0.28                      -2.476728278207932E-4
0.280833                  -2.4865624953486037E-4
0.281667                  -2.496315550119683E-4
0.2825                    -2.5059983932191514E-4
0.283333                  -2.5156060892365863E-4
0.284167                  -2.525133951520662E-4
0.285                     -2.534592717191296E-4
0.285833                  -2.543977553634259E-4
0.286667                  -2.5532838796793456E-4
0.2875                    -2.5625222136771994E-4
0.288333                  -2.5716878304827987E-4
0.289167                  -2.5807762464684277E-4
0.29                      -2.5897977713273707E-4
0.290833                  -2.598747780315378E-4
0.291667                  -2.607621889655139E-4
0.2925                    -2.616430198033359E-4
0.293333                  -2.6251681840609037E-4
0.294167                  -2.633831561201551E-4
0.295                     -2.6424302213948935E-4
0.295833                  -2.6509597423210365E-4
0.296667                  -2.659415933677499E-4
0.2975                    -2.6678084845325323E-4
0.298333                  -2.676133069372861E-4
0.299167                  -2.684385594461596E-4
0.3                       -2.6925755449353053E-4
0.300833                  -2.700698695634815E-4
0.301667                  -2.70875104386039E-4
0.3025                    -2.716741876087815E-4
0.303333                  -2.724667063065808E-4
0.304167                  -2.7325226930410054E-4
0.305                     -2.7403178599886717E-4
0.305833                  -2.7480485246036897E-4
0.306667                  -2.75571086714292E-4
0.3075                    -2.7633137883457243E-4
0.308333                  -2.770853342163884E-4
0.309167                  -2.77832579569135E-4
0.31                      -2.785739861670216E-4
0.310833                  -2.7930916842495795E-4
0.311667                  -2.800377618609481E-4
0.3125                    -2.807606187117684E-4
0.313333                  -2.81477362651922E-4
0.314167                  -2.821876375673183E-4
0.315                     -2.82892277591515E-4
0.315833                  -2.83590914810855E-4
0.316667                  -2.8428320164796994E-4
0.3175                    -2.849699540871661E-4
0.318333                  -2.8565081285311785E-4
0.319167                  -2.863254388505555E-4
0.32                      -2.8699462978263923E-4
0.320833                  -2.876580352318032E-4
0.321667                  -2.883153239486619E-4
0.3225                    -2.8896727627155457E-4
0.323333                  -2.896135499041479E-4
0.324167                  -2.902538218415578E-4
0.325                     -2.908888548742688E-4
0.325833                  -2.915183150023715E-4
0.326667                  -2.921418869947808E-4
0.3275                    -2.9276031661641785E-4
0.328333                  -2.9337327797074395E-4
0.329167                  -2.939804634834978E-4
0.33                      -2.9458260215628945E-4
0.330833                  -2.9517937584349214E-4
0.331667                  -2.95770484880518E-4
0.3325                    -2.963566414362228E-4
0.333333                  -2.969375351949435E-4
0.334167                  -2.97512874005981E-4
0.335                     -2.9808335361493533E-4
0.335833                  -2.9864867162698747E-4
0.336667                  -2.9920854287562377E-4
0.3375                    -2.997636472441501E-4
0.338333                  -3.0031368976110844E-4
0.339167                  -3.0085839256900604E-4
0.34                      -3.0139841959678936E-4
0.340833                  -3.019334833406586E-4
0.341667                  -3.024633129712033E-4
0.3425                    -3.0298855690830416E-4
0.343333                  -3.0350893474852237E-4
0.344167                  -3.040241829221387E-4
0.345                     -3.0453493408421386E-4
0.345833                  -3.0504091537305754E-4
0.346667                  -3.0554186971915373E-4
0.3475                    -3.060384148239039E-4
0.348333                  -3.0653028474411485E-4
0.349167                  -3.0701722918423813E-4
0.35                      -3.0749985108024624E-4
0.350833                  -3.079778911160185E-4
0.351667                  -3.0845110577131337E-4
0.3525                    -3.0892008318504166E-4
0.353333                  -3.0938457097770815E-4
0.354167                  -3.098443320164991E-4
0.355                     -3.102999399563254E-4
0.355833                  -3.107511491112082E-4
0.356667                  -3.1119772863268645E-4
0.3575                    -3.116402380990243E-4
0.358333                  -3.1207843819211647E-4
0.359167                  -3.125121045197851E-4
0.36                      -3.12941782403049E-4
0.360833                  -3.133672391522673E-4
0.361667                  -3.137882562976116E-4
0.3625                    -3.1420536562836387E-4
0.363333                  -3.146183405819752E-4
0.364167                  -3.1502696876095296E-4
0.365                     -3.1543176827303484E-4
0.365833                  -3.158325188791206E-4
0.366667                  -3.1622901408127245E-4
0.3675                    -3.166217586022311E-4
0.368333                  -3.170105382321088E-4
0.369167                  -3.1739515228894767E-4
0.37                      -3.17776092402839E-4
0.370833                  -3.181531502238506E-4
0.371667                  -3.185261309042766E-4
0.3725                    -3.1889551292064197E-4
0.373333                  -3.192610940261913E-4
0.374167                  -3.1962268484352297E-4
0.375                     -3.1998075100886055E-4
0.375833                  -3.203350960399546E-4
0.376667                  -3.206855362353408E-4
0.3775                    -3.21032524642432E-4
0.378333                  -3.2137587026713374E-4
0.379167                  -3.217153947632459E-4
0.38                      -3.220515389219482E-4
0.380833                  -3.223841174362527E-4
0.381667                  -3.227129569865249E-4
0.3825                    -3.230384863765655E-4
0.383333                  -3.2336052559475383E-4
0.384167                  -3.2367890663737736E-4
0.385                     -3.239940463085523E-4
0.385833                  -3.243057698712564E-4
0.386667                  -3.24613914445479E-4
0.3875                    -3.249188850671939E-4
0.388333                  -3.252205122310703E-4
0.389167                  -3.255186379886653E-4
0.39                      -3.258136558212608E-4
0.390833                  -3.2610540134908687E-4
0.391667                  -3.26393721654039E-4
0.3925                    -3.2667899855272575E-4
0.393333                  -3.2696107293375714E-4
0.394167                  -3.272397965115021E-4
0.395                     -3.2751554000091184E-4
0.395833                  -3.277881491034183E-4
0.396667                  -3.280574804113121E-4
0.3975                    -3.2832389344161815E-4
0.398333                  -3.2858723880593843E-4
0.399167                  -3.2884737768253065E-4
0.4                       -3.2910465871850594E-4
0.400833                  -3.2935893731761456E-4
0.401667                  -3.2961007916852675E-4
0.4025                    -3.2985842221531787E-4
0.403333                  -3.3010382643535466E-4
0.404167                  -3.3034616217646965E-4
0.405                     -3.305857566501191E-4
0.405833                  -3.3082247445187236E-4
0.406667                  -3.310561903517428E-4
0.4075                    -3.3128722105348833E-4
0.408333                  -3.3151543582424394E-4
0.409167                  -3.317407135900567E-4
0.41                      -3.3196336090516367E-4
0.410833                  -3.3218325133282787E-4
0.411667                  -3.3240026813460144E-4
0.4125                    -3.3261470767826534E-4
0.413333                  -3.3282644793700155E-4
0.414167                  -3.330353762607964E-4
0.415                     -3.332417790992435E-4
0.415833                  -3.334455386814049E-4
0.416667                  -3.33646546498933E-4
0.4175                    -3.338450789853066E-4
0.418333                  -3.340410227591523E-4
0.419167                  -3.342342732428479E-4
0.42                      -3.344250971813934E-4
0.420833                  -3.3461338527759964E-4
0.421667                  -3.3479903695402224E-4
0.4225                    -3.3498230944130906E-4
0.423333                  -3.3516309735558624E-4
0.424167                  -3.35341304115388E-4
0.425                     -3.355171774231166E-4
0.425833                  -3.356906159788611E-4
0.426667                  -3.3586152698026944E-4
0.4275                    -3.3603014877868503E-4
0.428333                  -3.361963840190017E-4
0.429167                  -3.363601436321292E-4
0.43                      -3.365216568314949E-4
0.430833                  -3.3668083003759373E-4
0.431667                  -3.368375779998572E-4
0.4325                    -3.3699212070625596E-4
0.433333                  -3.3714436848180675E-4
0.434167                  -3.3729423962789367E-4
0.435                     -3.3744194526827084E-4
0.435833                  -3.375873993846498E-4
0.436667                  -3.37730523905746E-4
0.4375                    -3.3787152102396383E-4
0.438333                  -3.38010308432863E-4
0.439167                  -3.3814681167619647E-4
0.44                      -3.382812240881637E-4
0.440833                  -3.3841346705470174E-4
0.441667                  -3.385434695081039E-4
0.4425                    -3.3867141620755965E-4
0.443333                  -3.3879723206084374E-4
0.444167                  -3.389208494801823E-4
0.445                     -3.3904244461424365E-4
0.445833                  -3.391619459115794E-4
0.446667                  -3.3927928916177254E-4
0.4475                    -3.393946420680704E-4
0.448333                  -3.3950793648078594E-4
0.449167                  -3.3961911166291615E-4
0.45                      -3.3972832680663804E-4
0.450833                  -3.398355172237494E-4
0.451667                  -3.3994062546183895E-4
0.4525                    -3.400438024236906E-4
0.453333                  -3.4014498685857843E-4
0.454167                  -3.402441244803149E-4
0.455                     -3.403413580342584E-4
0.455833                  -3.40436629548495E-4
0.456667                  -3.405298880143886E-4
0.4575                    -3.4062126801890193E-4
0.458333                  -3.4071071485239547E-4
0.459167                  -3.4079818071624125E-4
0.46                      -3.4088379212514564E-4
0.460833                  -3.40967497619015E-4
0.461667                  -3.4104925253426965E-4
0.4625                    -3.411291753960194E-4
0.463333                  -3.4120721795286095E-4
0.464167                  -3.412833387110905E-4
0.465                     -3.4135764816738953E-4
0.465833                  -3.414301013247862E-4
0.466667                  -3.415006597265025E-4
0.4675                    -3.4156942603978256E-4
0.468333                  -3.4163635836616577E-4
0.469167                  -3.4170142135146026E-4
0.47                      -3.41764709813935E-4
0.470833                  -3.4182618498143175E-4
0.471667                  -3.418858145389565E-4
0.4725                    -3.4194368553085706E-4
0.473333                  -3.4199976226159814E-4
0.474167                  -3.4205401544170136E-4
0.475                     -3.421065243977446E-4
0.475833                  -3.421572564710639E-4
0.476667                  -3.422061854010778E-4
0.4775                    -3.4225338279036905E-4
0.478333                  -3.422988190609147E-4
0.479167                  -3.423424709051845E-4
0.48                      -3.4238440227741466E-4
0.480833                  -3.424245866160748E-4
0.481667                  -3.424630035759011E-4
0.4825                    -3.4249970952839065E-4
0.483333                  -3.425346808634378E-4
0.484167                  -3.4256790020584514E-4
0.485                     -3.4259941634402573E-4
0.485833                  -3.426292086464695E-4
0.486667                  -3.4265726266527035E-4
0.4875                    -3.4268361964745773E-4
0.488333                  -3.427082619180523E-4
0.489167                  -3.4273117795882306E-4
0.49                      -3.427524014670979E-4
0.490833                  -3.427719177334396E-4
0.491667                  -3.427897181192342E-4
0.4925                    -3.428058286441284E-4
0.493333                  -3.428202361780357E-4
0.494167                  -3.4283292528947465E-4
0.495                     -3.428438423561107E-4
0.495833                  -3.428524571924592E-4
0.496667                  -3.4285504998529236E-4
0.4975                    -3.4282594283511445E-4
0.498333                  -3.4260171500946065E-4
0.499167                  -3.414949828927796E-4
0.5                       -3.4609015008707695E-4
