[Info]
Version 1
Dimension 2
NumNodes 121
Num3DElements 0
Num2DElements 100
Num1DElements 0
NumNodeBC 48
NumSaveNodes 0
NumSaveElements 0
Num 2d-line      : 0
Num 2d-line,quad : 0
Num 3d-line      : 0
Num 3d-line,quad : 0
Num triangle     : 0
Num triangle,quad: 0
Num quadr        : 100
Num quadr,quad   : 0
Num tetra        : 0
Num tetra,quad   : 0
Num brick        : 0
Num brick,quad   : 0
Num pyramid      : 0
Num pyramid,quad : 0
Num wedge        : 0
Num wedge,quad   : 0

[Nodes]
#NodeNr x-coord y-coord z-coord
1  0.0  0.0  0.0
2  0.1  0.0  0.0
3  0.2  0.0  0.0
4  0.3  0.0  0.0
5  0.4  0.0  0.0
6  0.5  0.0  0.0
7  0.6  0.0  0.0
8  0.7  0.0  0.0
9  0.8  0.0  0.0
10  0.9  0.0  0.0
11  1.0  0.0  0.0
12  0.0  0.1  0.0
13  0.1  0.1  0.0
14  0.2  0.1  0.0
15  0.3  0.1  0.0
16  0.4  0.1  0.0
17  0.5  0.1  0.0
18  0.6  0.1  0.0
19  0.7  0.1  0.0
20  0.8  0.1  0.0
21  0.9  0.1  0.0
22  1.0  0.1  0.0
23  0.0  0.2  0.0
24  0.1  0.2  0.0
25  0.2  0.2  0.0
26  0.3  0.2  0.0
27  0.4  0.2  0.0
28  0.5  0.2  0.0
29  0.6  0.2  0.0
30  0.7  0.2  0.0
31  0.8  0.2  0.0
32  0.9  0.2  0.0
33  1.0  0.2  0.0
34  0.0  0.3  0.0
35  0.1  0.3  0.0
36  0.2  0.3  0.0
37  0.3  0.3  0.0
38  0.4  0.3  0.0
39  0.5  0.3  0.0
40  0.6  0.3  0.0
41  0.7  0.3  0.0
42  0.8  0.3  0.0
43  0.9  0.3  0.0
44  1.0  0.3  0.0
45  0.0  0.4  0.0
46  0.1  0.4  0.0
47  0.2  0.4  0.0
48  0.3  0.4  0.0
49  0.4  0.4  0.0
50  0.5  0.4  0.0
51  0.6  0.4  0.0
52  0.7  0.4  0.0
53  0.8  0.4  0.0
54  0.9  0.4  0.0
55  1.0  0.4  0.0
56  0.0  0.5  0.0
57  0.1  0.5  0.0
58  0.2  0.5  0.0
59  0.3  0.5  0.0
60  0.4  0.5  0.0
61  0.5  0.5  0.0
62  0.6  0.5  0.0
63  0.7  0.5  0.0
64  0.8  0.5  0.0
65  0.9  0.5  0.0
66  1.0  0.5  0.0
67  0.0  0.6  0.0
68  0.1  0.6  0.0
69  0.2  0.6  0.0
70  0.3  0.6  0.0
71  0.4  0.6  0.0
72  0.5  0.6  0.0
73  0.6  0.6  0.0
74  0.7  0.6  0.0
75  0.8  0.6  0.0
76  0.9  0.6  0.0
77  1.0  0.6  0.0
78  0.0  0.7  0.0
79  0.1  0.7  0.0
80  0.2  0.7  0.0
81  0.3  0.7  0.0
82  0.4  0.7  0.0
83  0.5  0.7  0.0
84  0.6  0.7  0.0
85  0.7  0.7  0.0
86  0.8  0.7  0.0
87  0.9  0.7  0.0
88  1.0  0.7  0.0
89  0.0  0.8  0.0
90  0.1  0.8  0.0
91  0.2  0.8  0.0
92  0.3  0.8  0.0
93  0.4  0.8  0.0
94  0.5  0.8  0.0
95  0.6  0.8  0.0
96  0.7  0.8  0.0
97  0.8  0.8  0.0
98  0.9  0.8  0.0
99  1.0  0.8  0.0
100  0.0  0.9  0.0
101  0.1  0.9  0.0
102  0.2  0.9  0.0
103  0.3  0.9  0.0
104  0.4  0.9  0.0
105  0.5  0.9  0.0
106  0.6  0.9  0.0
107  0.7  0.9  0.0
108  0.8  0.9  0.0
109  0.9  0.9  0.0
110  1.0  0.9  0.0
111  0.0  1.0  0.0
112  0.1  1.0  0.0
113  0.2  1.0  0.0
114  0.3  1.0  0.0
115  0.4  1.0  0.0
116  0.5  1.0  0.0
117  0.6  1.0  0.0
118  0.7  1.0  0.0
119  0.8  1.0  0.0
120  0.9  1.0  0.0
121  1.0  1.0  0.0

[1D Elements]
#ElemNr  ElemType  NrOfNodes  Level
#Node1 Node2 ... NodeNrOfNodes

[2D Elements]
#ElemNr  ElemType  NrOfNodes  Level
#Node1 Node2 ... NodeNrOfNodes
1 6 4 mech
1 2 13 12
2 6 4 mech
2 3 14 13
3 6 4 mech
3 4 15 14
4 6 4 mech
4 5 16 15
5 6 4 mech
5 6 17 16
6 6 4 mech
6 7 18 17
7 6 4 mech
7 8 19 18
8 6 4 mech
8 9 20 19
9 6 4 mech
9 10 21 20
10 6 4 mech
10 11 22 21
11 6 4 mech
12 13 24 23
12 6 4 mech
13 14 25 24
13 6 4 mech
14 15 26 25
14 6 4 mech
15 16 27 26
15 6 4 mech
16 17 28 27
16 6 4 mech
17 18 29 28
17 6 4 mech
18 19 30 29
18 6 4 mech
19 20 31 30
19 6 4 mech
20 21 32 31
20 6 4 mech
21 22 33 32
21 6 4 mech
23 24 35 34
22 6 4 mech
24 25 36 35
23 6 4 mech
25 26 37 36
24 6 4 mech
26 27 38 37
25 6 4 mech
27 28 39 38
26 6 4 mech
28 29 40 39
27 6 4 mech
29 30 41 40
28 6 4 mech
30 31 42 41
29 6 4 mech
31 32 43 42
30 6 4 mech
32 33 44 43
31 6 4 mech
34 35 46 45
32 6 4 mech
35 36 47 46
33 6 4 mech
36 37 48 47
34 6 4 mech
37 38 49 48
35 6 4 mech
38 39 50 49
36 6 4 mech
39 40 51 50
37 6 4 mech
40 41 52 51
38 6 4 mech
41 42 53 52
39 6 4 mech
42 43 54 53
40 6 4 mech
43 44 55 54
41 6 4 mech
45 46 57 56
42 6 4 mech
46 47 58 57
43 6 4 mech
47 48 59 58
44 6 4 mech
48 49 60 59
45 6 4 mech
49 50 61 60
46 6 4 mech
50 51 62 61
47 6 4 mech
51 52 63 62
48 6 4 mech
52 53 64 63
49 6 4 mech
53 54 65 64
50 6 4 mech
54 55 66 65
51 6 4 mech
56 57 68 67
52 6 4 mech
57 58 69 68
53 6 4 mech
58 59 70 69
54 6 4 mech
59 60 71 70
55 6 4 mech
60 61 72 71
56 6 4 mech
61 62 73 72
57 6 4 mech
62 63 74 73
58 6 4 mech
63 64 75 74
59 6 4 mech
64 65 76 75
60 6 4 mech
65 66 77 76
61 6 4 mech
67 68 79 78
62 6 4 mech
68 69 80 79
63 6 4 mech
69 70 81 80
64 6 4 mech
70 71 82 81
65 6 4 mech
71 72 83 82
66 6 4 mech
72 73 84 83
67 6 4 mech
73 74 85 84
68 6 4 mech
74 75 86 85
69 6 4 mech
75 76 87 86
70 6 4 mech
76 77 88 87
71 6 4 mech
78 79 90 89
72 6 4 mech
79 80 91 90
73 6 4 mech
80 81 92 91
74 6 4 mech
81 82 93 92
75 6 4 mech
82 83 94 93
76 6 4 mech
83 84 95 94
77 6 4 mech
84 85 96 95
78 6 4 mech
85 86 97 96
79 6 4 mech
86 87 98 97
80 6 4 mech
87 88 99 98
81 6 4 mech
89 90 101 100
82 6 4 mech
90 91 102 101
83 6 4 mech
91 92 103 102
84 6 4 mech
92 93 104 103
85 6 4 mech
93 94 105 104
86 6 4 mech
94 95 106 105
87 6 4 mech
95 96 107 106
88 6 4 mech
96 97 108 107
89 6 4 mech
97 98 109 108
90 6 4 mech
98 99 110 109
91 6 4 mech
100 101 112 111
92 6 4 mech
101 102 113 112
93 6 4 mech
102 103 114 113
94 6 4 mech
103 104 115 114
95 6 4 mech
104 105 116 115
96 6 4 mech
105 106 117 116
97 6 4 mech
106 107 118 117
98 6 4 mech
107 108 119 118
99 6 4 mech
108 109 120 119
100 6 4 mech
109 110 121 120

[3D Elements]
#ElemNr  ElemType  NrOfNodes  Level
#Node1 Node2 ... NodeNrOfNodes

[Node BC]
#NodeNr Level
1 bottom
2 bottom
3 bottom
4 bottom
5 bottom
6 bottom
7 bottom
8 bottom
9 bottom
10 bottom
11 bottom
111 top
112 top
113 top
114 top
115 top
116 top
117 top
118 top
119 top
120 top
121 top
1 left
12 left
23 left
34 left
45 left
56 left
67 left
78 left
89 left
100 left
111 left
11 right
22 right
33 right
44 right
55 right
66 right
77 right
88 right
99 right
110 right
121 right
1 bottom_left
11 bottom_right
111 top_left
121 top_right

[Save Nodes]
#NodeNr Level

[Save Elements]
#ElemNr Level

 
