
0                         1.7615186324030898E-8
2.0000000000000226E-4     1.7501328168195234E-8
3.999999999999941E-4      1.739008685468275E-8
5.999999999999998E-4      1.7281462383493458E-8
8.000000000000021E-4      1.7175454754627363E-8
0.0010000000000000009     1.707206396808445E-8
0.0012000000000000031     1.6971130807713806E-8
0.0013999999999999985     1.687247399615733E-8
0.0016000000000000007     1.6776093533415025E-8
0.0018000000000000065     1.6681989419486893E-8
0.0020000000000000018     1.659016165437293E-8
0.002200000000000004      1.650044305874572E-8
0.002399999999999996      1.6412707921656042E-8
0.0025999999999999947     1.63269562431039E-8
0.0028000000000000004     1.6243188023089297E-8
0.0029999999999999957     1.616140326161222E-8
0.0031999999999999945     1.6081460540852323E-8
0.00339999999999999       1.600325402833107E-8
0.0035999999999999886     1.5926783724048466E-8
0.0037999999999999944     1.585204962800452E-8
0.003999999999999993      1.5779051740199208E-8
0.004199999999999995      1.570767166841233E-8
0.004399999999999991      1.5637818675930256E-8
0.0045999999999999895     1.5569492762753023E-8
0.004799999999999995      1.5502693928880607E-8
0.004999999999999994      1.543742217431301E-8
0.005199999999999996      1.537358476983804E-8
0.005399999999999988      1.5311097137449067E-8
0.005599999999999987      1.5249959277146104E-8
0.005799999999999989      1.5190171188929154E-8
0.005999999999999988      1.51317328727982E-8
0.00619999999999999       1.5074564990962964E-8
0.006399999999999982      1.501859669790361E-8
0.006599999999999981      1.4963827993620157E-8
0.00679999999999999       1.4910258878112603E-8
0.006999999999999989      1.485788935138094E-8
0.007199999999999991      1.4806645919116894E-8
0.007399999999999983      1.475647628863389E-8
0.007599999999999982      1.4707380459931928E-8
0.007799999999999984      1.4659358433011016E-8
0.007999999999999983      1.4612410207871142E-8
0.008199999999999989      1.456644568732118E-8
0.00839999999999998       1.4521441337836614E-8
0.00859999999999998       1.4477397159417448E-8
0.008799999999999985      1.4434313152063677E-8
0.00899999999999998       1.4392189315775295E-8
0.00919999999999999       1.4350972865203013E-8
0.009399999999999988      1.4310617824745936E-8
0.00959999999999999       1.4271124194404053E-8
0.0098                    1.4232491974177378E-8
0.009999999999999998      1.41947211640659E-8
0.009999999999999998      NaN
0.010200000000000004      NaN
0.010399999999999993      NaN
0.010599999999999995      NaN
0.010800000000000004      NaN
0.011000000000000003      NaN
0.011200000000000002      NaN
0.011399999999999997      NaN
0.011599999999999996      NaN
0.011800000000000001      NaN
0.012                     NaN
0.012200000000000006      NaN
0.012399999999999998      NaN
0.012599999999999997      NaN
0.01280000000000001       NaN
0.013000000000000001      NaN
0.013200000000000007      NaN
0.013399999999999999      NaN
0.013599999999999998      NaN
0.01380000000000001       NaN
0.014000000000000002      NaN
0.0142                    NaN
0.0144                    NaN
0.014599999999999998      NaN
0.014800000000000011      NaN
0.015000000000000003      NaN
0.015200000000000016      NaN
0.015399999999999994      NaN
0.015599999999999992      NaN
0.015800000000000012      NaN
0.016000000000000004      NaN
0.01620000000000001       NaN
0.0164                    NaN
0.0166                    NaN
0.016800000000000006      NaN
0.017000000000000005      NaN
0.017200000000000003      NaN
0.017400000000000002      NaN
0.0176                    NaN
0.017800000000000014      NaN
0.018000000000000006      NaN
0.01820000000000001       NaN
0.018400000000000003      NaN
0.018600000000000002      NaN
0.018800000000000008      NaN
0.019000000000000006      NaN
0.019200000000000012      NaN
0.019399999999999997      NaN
0.019599999999999996      NaN
0.019800000000000016      NaN
0.020000000000000007      NaN
0.020200000000000006      NaN
0.020400000000000005      NaN
0.020600000000000004      NaN
0.020800000000000016      NaN
0.021000000000000008      NaN
0.021200000000000014      NaN
0.0214                    NaN
0.021600000000000005      NaN
0.02180000000000001       NaN
0.02200000000000001       NaN
0.022200000000000015      NaN
0.022400000000000007      NaN
0.022600000000000006      NaN
0.022800000000000018      NaN
0.02300000000000001       NaN
0.023200000000000023      NaN
0.0234                    NaN
0.0236                    NaN
0.02380000000000002       NaN
0.02400000000000001       NaN
0.024200000000000017      NaN
0.0244                    NaN
0.024600000000000007      NaN
0.02480000000000002       NaN
0.025000000000000012      NaN
0.02520000000000001       NaN
0.025400000000000002      NaN
0.0256                    NaN
0.02580000000000002       NaN
0.026000000000000013      NaN
0.026200000000000025      NaN
0.02640000000000001       NaN
0.02660000000000001       NaN
0.02680000000000002       NaN
0.027000000000000014      NaN
0.02720000000000002       NaN
0.02740000000000001       NaN
0.02760000000000001       NaN
0.027800000000000023      NaN
0.02800000000000002       NaN
0.02820000000000002       NaN
0.028400000000000005      NaN
0.02860000000000001       NaN
0.028800000000000023      NaN
0.029000000000000015      NaN
0.029200000000000014      NaN
0.029400000000000006      NaN
0.029600000000000005      NaN
0.029800000000000024      NaN
0.030000000000000023      NaN
0.030200000000000022      NaN
0.030400000000000014      NaN
0.030600000000000013      NaN
0.030800000000000025      NaN
0.031000000000000017      NaN
0.031200000000000023      NaN
0.03140000000000001       NaN
0.03160000000000002       NaN
0.03180000000000003       NaN
0.03200000000000003       NaN
0.032200000000000034      NaN
0.032400000000000026      NaN
0.03260000000000003       NaN
0.032800000000000044      NaN
0.033000000000000036      NaN
0.033200000000000035      NaN
0.03340000000000003       NaN
0.033600000000000026      NaN
0.033800000000000045      NaN
0.034000000000000044      NaN
0.03420000000000006       NaN
0.03440000000000004       NaN
0.03460000000000004       NaN
0.034800000000000046      NaN
0.035000000000000045      NaN
0.03520000000000006       NaN
0.03540000000000004       NaN
0.03560000000000004       NaN
0.03580000000000006       NaN
0.03600000000000005       NaN
0.036200000000000065      NaN
0.03640000000000004       NaN
0.03660000000000005       NaN
0.03680000000000006       NaN
0.037000000000000054      NaN
0.03720000000000006       NaN
0.03740000000000005       NaN
0.03760000000000006       NaN
0.03780000000000008       NaN
0.03800000000000007       NaN
0.03820000000000008       NaN
0.038400000000000066      NaN
0.03860000000000006       NaN
0.03880000000000008       NaN
0.03900000000000007       NaN
0.039200000000000075      NaN
0.03940000000000006       NaN
0.03960000000000006       NaN
0.03980000000000008       NaN
0.04000000000000008       NaN
0.04020000000000009       NaN
0.04040000000000007       NaN
0.040600000000000074      NaN
0.04080000000000009       NaN
0.041000000000000085      NaN
0.0412000000000001        NaN
0.04140000000000008       NaN
0.04160000000000008       NaN
0.041800000000000094      NaN
0.042000000000000086      NaN
0.04220000000000009       NaN
0.04240000000000008       NaN
0.042600000000000075      NaN
0.042800000000000095      NaN
0.04300000000000009       NaN
0.043200000000000106      NaN
0.04340000000000007       NaN
0.043600000000000076      NaN
0.04380000000000011       NaN
0.0440000000000001        NaN
0.04420000000000011       NaN
0.0444000000000001        NaN
0.044600000000000105      NaN
0.044800000000000124      NaN
0.045000000000000116      NaN
0.04520000000000012       NaN
0.0454000000000001        NaN
0.045600000000000106      NaN
0.045800000000000125      NaN
0.04600000000000012       NaN
0.04620000000000012       NaN
0.046400000000000115      NaN
0.04660000000000011       NaN
0.046800000000000126      NaN
0.04700000000000012       NaN
0.04720000000000014       NaN
0.0474000000000001        NaN
0.04760000000000011       NaN
0.04780000000000013       NaN
0.04800000000000012       NaN
0.048200000000000125      NaN
0.0484000000000001        NaN
0.04860000000000011       NaN
0.04880000000000013       NaN
0.049000000000000134      NaN
0.04920000000000014       NaN
0.04940000000000013       NaN
0.04960000000000012       NaN
0.04980000000000014       NaN
0.050000000000000135      NaN
0.050200000000000154      NaN
0.050400000000000146      NaN
0.05060000000000015       NaN
0.050800000000000144      NaN
0.05100000000000015       NaN
0.051200000000000155      NaN
0.05140000000000013       NaN
0.05160000000000014       NaN
0.05180000000000016       NaN
0.05200000000000015       NaN
0.052200000000000156      NaN
0.052400000000000134      NaN
0.05260000000000014       NaN
0.05280000000000016       NaN
0.05300000000000015       NaN
0.05320000000000016       NaN
0.053400000000000135      NaN
0.05360000000000014       NaN
0.053800000000000174      NaN
0.054000000000000166      NaN
0.05420000000000017       NaN
0.054400000000000164      NaN
0.054600000000000155      NaN
0.054800000000000175      NaN
0.05500000000000017       NaN
0.055200000000000186      NaN
0.05540000000000015       NaN
0.055600000000000156      NaN
0.055800000000000176      NaN
0.05600000000000017       NaN
0.05620000000000017       NaN
0.05640000000000018       NaN
0.05660000000000017       NaN
0.05680000000000019       NaN
0.05700000000000018       NaN
0.05720000000000019       NaN
0.05740000000000018       NaN
0.057600000000000186      NaN
0.05780000000000019       NaN
0.05800000000000018       NaN
0.05820000000000019       NaN
0.05840000000000017       NaN
0.05860000000000017       NaN
0.05880000000000019       NaN
0.059000000000000184      NaN
0.05920000000000019       NaN
0.05940000000000017       NaN
0.059600000000000174      NaN
0.05980000000000019       NaN
0.0600000000000002        NaN
0.060200000000000205      NaN
0.06040000000000018       NaN
0.06060000000000019       NaN
0.06080000000000021       NaN
0.0610000000000002        NaN
0.061200000000000206      NaN
0.06140000000000021       NaN
0.0616000000000002        NaN
0.06180000000000024       NaN
0.062000000000000215      NaN
0.06220000000000022       NaN
0.0624000000000002        NaN
0.06260000000000021       NaN
0.06280000000000023       NaN
0.06300000000000022       NaN
0.06320000000000024       NaN
0.0634000000000002        NaN
0.06360000000000021       NaN
0.06380000000000023       NaN
0.06400000000000022       NaN
0.06420000000000023       NaN
0.06440000000000022       NaN
0.06460000000000023       NaN
0.06480000000000023       NaN
0.06500000000000022       NaN
0.06520000000000023       NaN
0.06540000000000022       NaN
0.06560000000000021       NaN
0.06580000000000025       NaN
0.06600000000000024       NaN
0.06620000000000026       NaN
0.06640000000000024       NaN
0.06660000000000024       NaN
0.06680000000000026       NaN
0.06700000000000025       NaN
0.06720000000000027       NaN
0.06740000000000024       NaN
0.06760000000000024       NaN
0.06780000000000025       NaN
0.06800000000000024       NaN
0.06820000000000026       NaN
0.06840000000000024       NaN
0.06860000000000024       NaN
0.06880000000000028       NaN
0.06900000000000026       NaN
0.06920000000000026       NaN
0.06940000000000024       NaN
0.06960000000000025       NaN
0.06980000000000026       NaN
0.07000000000000026       NaN
0.07020000000000028       NaN
0.07040000000000024       NaN
0.07060000000000025       NaN
0.07080000000000028       NaN
0.07100000000000027       NaN
0.07120000000000028       NaN
0.07140000000000027       NaN
0.07160000000000027       NaN
0.07180000000000028       NaN
0.07200000000000027       NaN
0.07220000000000028       NaN
0.07240000000000027       NaN
0.07260000000000026       NaN
0.07280000000000028       NaN
0.07300000000000027       NaN
0.07320000000000029       NaN
0.07340000000000026       NaN
0.07360000000000026       NaN
0.07380000000000031       NaN
0.07400000000000029       NaN
0.0742000000000003        NaN
0.07440000000000027       NaN
0.07460000000000028       NaN
0.07480000000000031       NaN
0.0750000000000003        NaN
0.07520000000000031       NaN
0.07540000000000027       NaN
0.07560000000000028       NaN
0.07580000000000028       NaN
0.07600000000000029       NaN
0.0762000000000003        NaN
0.07640000000000027       NaN
0.07660000000000028       NaN
0.07680000000000031       NaN
0.0770000000000003        NaN
0.07720000000000031       NaN
0.07740000000000029       NaN
0.0776000000000003        NaN
0.07780000000000031       NaN
0.0780000000000003        NaN
0.07820000000000032       NaN
0.0784000000000003        NaN
0.07860000000000031       NaN
0.07880000000000034       NaN
0.07900000000000032       NaN
0.07920000000000033       NaN
0.07940000000000032       NaN
0.07960000000000031       NaN
0.07980000000000034       NaN
0.08000000000000032       NaN
0.08020000000000034       NaN
0.08040000000000032       NaN
0.08060000000000031       NaN
0.08080000000000033       NaN
0.08100000000000032       NaN
0.08120000000000033       NaN
0.0814000000000003        NaN
0.08160000000000031       NaN
0.08180000000000033       NaN
0.08200000000000034       NaN
0.08220000000000036       NaN
0.08240000000000032       NaN
0.08260000000000033       NaN
0.08280000000000035       NaN
0.08300000000000034       NaN
0.08320000000000036       NaN
0.08340000000000033       NaN
0.08360000000000033       NaN
0.08380000000000037       NaN
0.08400000000000035       NaN
0.08420000000000037       NaN
0.08440000000000034       NaN
0.08460000000000034       NaN
0.08480000000000035       NaN
0.08500000000000035       NaN
0.08520000000000036       NaN
0.08540000000000034       NaN
0.08560000000000034       NaN
0.08580000000000036       NaN
0.08600000000000035       NaN
0.08620000000000036       NaN
0.08640000000000035       NaN
0.08660000000000034       NaN
0.08680000000000038       NaN
0.08700000000000037       NaN
0.08720000000000037       NaN
0.08740000000000035       NaN
0.08760000000000034       NaN
0.08780000000000036       NaN
0.08800000000000036       NaN
0.08820000000000036       NaN
0.08840000000000034       NaN
0.08860000000000035       NaN
0.0888000000000004        NaN
0.08900000000000038       NaN
0.08920000000000039       NaN
0.08940000000000037       NaN
0.08960000000000037       NaN
0.08980000000000038       NaN
0.09000000000000039       NaN
0.0902000000000004        NaN
0.09040000000000037       NaN
0.09060000000000036       NaN
0.0908000000000004        NaN
0.09100000000000039       NaN
0.0912000000000004        NaN
0.09140000000000037       NaN
0.09160000000000038       NaN
0.0918000000000004        NaN
0.09200000000000039       NaN
0.09220000000000039       NaN
0.09240000000000037       NaN
0.09260000000000038       NaN
0.0928000000000004        NaN
0.09300000000000039       NaN
0.0932000000000004        NaN
0.09340000000000037       NaN
0.09360000000000038       NaN
0.09380000000000041       NaN
0.0940000000000004        NaN
0.09420000000000041       NaN
0.09440000000000041       NaN
0.0946000000000004        NaN
0.09480000000000044       NaN
0.09500000000000042       NaN
0.09520000000000042       NaN
0.09540000000000039       NaN
0.09560000000000039       NaN
0.09580000000000044       NaN
0.09600000000000043       NaN
0.09620000000000042       NaN
0.0964000000000004        NaN
0.09660000000000042       NaN
0.09680000000000046       NaN
0.09700000000000043       NaN
0.09720000000000045       NaN
0.09740000000000043       NaN
0.09760000000000042       NaN
0.09780000000000047       NaN
0.09800000000000046       NaN
0.0982000000000005        NaN
0.09840000000000046       NaN
0.09860000000000047       NaN
0.09880000000000048       NaN
0.09900000000000048       NaN
0.09920000000000048       NaN
0.09940000000000047       NaN
0.09960000000000047       NaN
0.0998000000000005        NaN
0.10000000000000049       NaN
0.10020000000000051       NaN
0.1004000000000005        NaN
0.1006000000000005        NaN
0.1008000000000005        NaN
0.1010000000000005        NaN
0.10120000000000053       NaN
0.10140000000000048       NaN
0.10160000000000048       NaN
0.10180000000000052       NaN
0.1020000000000005        NaN
0.10220000000000053       NaN
0.10240000000000049       NaN
0.10260000000000051       NaN
0.10280000000000056       NaN
0.10300000000000054       NaN
0.10320000000000054       NaN
0.10340000000000052       NaN
0.10360000000000053       NaN
0.10380000000000056       NaN
0.10400000000000055       NaN
0.10420000000000057       NaN
0.10440000000000055       NaN
0.10460000000000055       NaN
0.10480000000000059       NaN
0.10500000000000057       NaN
0.10520000000000057       NaN
0.10540000000000055       NaN
0.10560000000000055       NaN
0.10580000000000059       NaN
0.10600000000000057       NaN
0.10620000000000057       NaN
0.10640000000000055       NaN
0.10660000000000056       NaN
0.10680000000000059       NaN
0.1070000000000006        NaN
0.10720000000000063       NaN
0.10740000000000058       NaN
0.10760000000000061       NaN
0.10780000000000065       NaN
0.10800000000000062       NaN
0.10820000000000063       NaN
0.10840000000000061       NaN
0.10860000000000061       NaN
0.10880000000000065       NaN
0.10900000000000062       NaN
0.10920000000000063       NaN
0.10940000000000061       NaN
0.10960000000000061       NaN
0.10980000000000065       NaN
0.11000000000000065       NaN
0.11020000000000069       NaN
0.11040000000000064       NaN
0.11060000000000064       NaN
0.11080000000000068       NaN
0.11100000000000065       NaN
0.11120000000000066       NaN
0.11140000000000064       NaN
0.11160000000000062       NaN
0.11180000000000065       NaN
0.11200000000000065       NaN
0.11220000000000066       NaN
0.1124000000000007        NaN
0.11260000000000067       NaN
0.1128000000000007        NaN
0.11300000000000068       NaN
0.11320000000000069       NaN
0.11340000000000064       NaN
0.11360000000000067       NaN
0.1138000000000007        NaN
0.11400000000000071       NaN
0.11420000000000075       NaN
0.1144000000000007        NaN
0.1146000000000007        NaN
0.11480000000000071       NaN
0.11500000000000071       NaN
0.11520000000000075       NaN
0.11540000000000072       NaN
0.11560000000000073       NaN
0.11580000000000076       NaN
0.11600000000000074       NaN
0.11620000000000075       NaN
0.11640000000000073       NaN
0.11660000000000073       NaN
0.11680000000000076       NaN
0.11700000000000074       NaN
0.11720000000000078       NaN
0.11740000000000073       NaN
0.11760000000000073       NaN
0.11780000000000077       NaN
0.11800000000000074       NaN
0.11820000000000078       NaN
0.11840000000000073       NaN
0.11860000000000076       NaN
0.1188000000000008        NaN
0.1190000000000008        NaN
0.11920000000000083       NaN
0.11940000000000078       NaN
0.11960000000000079       NaN
0.11980000000000082       NaN
0.1200000000000008        NaN
0.1202000000000008        NaN
0.12040000000000076       NaN
0.12060000000000079       NaN
0.12080000000000082       NaN
0.1210000000000008        NaN
0.12120000000000083       NaN
0.12140000000000079       NaN
0.12160000000000079       NaN
0.12180000000000082       NaN
0.12200000000000083       NaN
0.12220000000000086       NaN
0.12240000000000081       NaN
0.12260000000000082       NaN
0.12280000000000085       NaN
0.12300000000000083       NaN
0.12320000000000086       NaN
0.12340000000000084       NaN
0.12360000000000082       NaN
0.12380000000000088       NaN
0.12400000000000086       NaN
0.12420000000000087       NaN
0.12440000000000087       NaN
0.12460000000000085       NaN
0.12480000000000088       NaN
0.1250000000000009        NaN
0.1252000000000009        NaN
0.12540000000000084       NaN
0.12560000000000085       NaN
0.12580000000000088       NaN
0.1260000000000009        NaN
0.1262000000000009        NaN
0.12640000000000087       NaN
0.12660000000000088       NaN
0.1268000000000009        NaN
0.1270000000000009        NaN
0.1272000000000009        NaN
0.1274000000000009        NaN
0.1276000000000009        NaN
0.12780000000000094       NaN
0.12800000000000092       NaN
0.12820000000000092       NaN
0.1284000000000009        NaN
0.12860000000000094       NaN
0.12880000000000094       NaN
0.12900000000000095       NaN
0.12920000000000095       NaN
0.12940000000000093       NaN
0.1296000000000009        NaN
0.12980000000000097       NaN
0.13000000000000095       NaN
0.13020000000000098       NaN
0.13040000000000096       NaN
0.13060000000000094       NaN
0.130800000000001         NaN
0.13100000000000098       NaN
0.13120000000000098       NaN
0.13140000000000096       NaN
0.13160000000000097       NaN
0.131800000000001         NaN
0.13200000000000098       NaN
0.13220000000000098       NaN
0.13240000000000093       NaN
0.13260000000000097       NaN
0.132800000000001         NaN
0.13300000000000098       NaN
0.133200000000001         NaN
0.133400000000001         NaN
0.133600000000001         NaN
0.13380000000000106       NaN
0.13400000000000103       NaN
0.13420000000000107       NaN
0.13440000000000102       NaN
0.13460000000000102       NaN
0.13480000000000106       NaN
0.13500000000000104       NaN
0.13520000000000107       NaN
0.13540000000000102       NaN
0.135600000000001         NaN
0.13580000000000106       NaN
0.13600000000000104       NaN
0.13620000000000104       NaN
0.13640000000000102       NaN
0.136600000000001         NaN
0.13680000000000106       NaN
0.13700000000000104       NaN
0.13720000000000107       NaN
0.13740000000000102       NaN
0.13760000000000103       NaN
0.13780000000000112       NaN
0.1380000000000011        NaN
0.1382000000000011        NaN
0.13840000000000108       NaN
0.13860000000000108       NaN
0.13880000000000112       NaN
0.1390000000000011        NaN
0.1392000000000011        NaN
0.13940000000000105       NaN
0.13960000000000108       NaN
0.13980000000000112       NaN
0.1400000000000011        NaN
0.1402000000000011        NaN
0.14040000000000108       NaN
0.14060000000000109       NaN
0.14080000000000112       NaN
0.14100000000000112       NaN
0.14120000000000113       NaN
0.1414000000000011        NaN
0.14160000000000109       NaN
0.14180000000000115       NaN
0.14200000000000113       NaN
0.1422000000000012        NaN
0.14240000000000114       NaN
0.14260000000000111       NaN
0.14280000000000118       NaN
0.14300000000000115       NaN
0.14320000000000116       NaN
0.14340000000000114       NaN
0.14360000000000114       NaN
0.14380000000000118       NaN
0.14400000000000118       NaN
0.1442000000000012        NaN
0.14440000000000114       NaN
0.14460000000000114       NaN
0.1448000000000012        NaN
0.14500000000000118       NaN
0.14520000000000122       NaN
0.14540000000000117       NaN
0.14560000000000117       NaN
0.1458000000000012        NaN
0.14600000000000118       NaN
0.14620000000000122       NaN
0.1464000000000012        NaN
0.1466000000000012        NaN
0.14680000000000124       NaN
0.1470000000000012        NaN
0.14720000000000122       NaN
0.14740000000000117       NaN
0.14760000000000117       NaN
0.14780000000000124       NaN
0.14800000000000124       NaN
0.14820000000000125       NaN
0.14840000000000123       NaN
0.1486000000000012        NaN
0.14880000000000126       NaN
0.14900000000000124       NaN
0.1492000000000013        NaN
0.14940000000000123       NaN
0.14960000000000123       NaN
0.1498000000000013        NaN
0.15000000000000127       NaN
0.1502000000000013        NaN
0.15040000000000125       NaN
0.15060000000000126       NaN
0.1508000000000013        NaN
0.15100000000000127       NaN
0.15120000000000128       NaN
0.15140000000000123       NaN
0.15160000000000126       NaN
0.1518000000000013        NaN
0.15200000000000127       NaN
0.1522000000000013        NaN
0.15240000000000128       NaN
0.15260000000000132       NaN
0.15280000000000135       NaN
0.15300000000000133       NaN
0.15320000000000134       NaN
0.1534000000000013        NaN
0.1536000000000013        NaN
0.15380000000000135       NaN
0.15400000000000133       NaN
0.15420000000000134       NaN
0.15440000000000131       NaN
0.1546000000000013        NaN
0.15480000000000135       NaN
0.15500000000000133       NaN
0.15520000000000134       NaN
0.15540000000000131       NaN
0.15560000000000132       NaN
0.15580000000000135       NaN
0.15600000000000133       NaN
0.15620000000000137       NaN
0.1564000000000013        NaN
0.1566000000000013        NaN
0.15680000000000135       NaN
0.15700000000000136       NaN
0.15720000000000142       NaN
0.15740000000000137       NaN
0.15760000000000138       NaN
0.1578000000000014        NaN
0.1580000000000014        NaN
0.15820000000000142       NaN
0.15840000000000137       NaN
0.15860000000000138       NaN
0.1588000000000014        NaN
0.1590000000000014        NaN
0.15920000000000142       NaN
0.15940000000000135       NaN
0.15960000000000138       NaN
0.15980000000000144       NaN
0.16000000000000142       NaN
0.16020000000000142       NaN
0.1604000000000014        NaN
0.16060000000000138       NaN
0.16080000000000144       NaN
0.16100000000000142       NaN
0.16120000000000145       NaN
0.1614000000000014        NaN
0.16160000000000138       NaN
0.16180000000000147       NaN
0.16200000000000142       NaN
0.16220000000000145       NaN
0.1624000000000014        NaN
0.16260000000000144       NaN
0.16280000000000147       NaN
0.16300000000000148       NaN
0.16320000000000148       NaN
0.16340000000000143       NaN
0.16360000000000144       NaN
0.16380000000000147       NaN
0.16400000000000148       NaN
0.1642000000000015        NaN
0.16440000000000146       NaN
0.16460000000000147       NaN
0.1648000000000015        NaN
0.16500000000000148       NaN
0.1652000000000015        NaN
0.1654000000000015        NaN
0.1656000000000015        NaN
0.16580000000000153       NaN
0.1660000000000015        NaN
0.16620000000000154       NaN
0.1664000000000015        NaN
0.16660000000000147       NaN
0.16680000000000153       NaN
0.1670000000000015        NaN
0.16720000000000151       NaN
0.1674000000000015        NaN
0.1676000000000015        NaN
0.16780000000000153       NaN
0.16800000000000154       NaN
0.1682000000000016        NaN
0.16840000000000152       NaN
0.16860000000000153       NaN
0.1688000000000016        NaN
0.16900000000000157       NaN
0.1692000000000016        NaN
0.16940000000000155       NaN
0.16960000000000156       NaN
0.1698000000000016        NaN
0.17000000000000157       NaN
0.17020000000000157       NaN
0.17040000000000152       NaN
0.17060000000000156       NaN
0.1708000000000016        NaN
0.17100000000000157       NaN
0.17120000000000157       NaN
0.17140000000000155       NaN
0.17160000000000156       NaN
0.1718000000000016        NaN
0.1720000000000016        NaN
0.17220000000000166       NaN
0.1724000000000016        NaN
0.17260000000000159       NaN
0.17280000000000165       NaN
0.17300000000000162       NaN
0.17320000000000166       NaN
0.1734000000000016        NaN
0.1736000000000016        NaN
0.17380000000000165       NaN
0.17400000000000163       NaN
0.17420000000000166       NaN
0.17440000000000158       NaN
0.17460000000000162       NaN
0.17480000000000165       NaN
0.17500000000000165       NaN
0.17520000000000166       NaN
0.1754000000000016        NaN
0.17560000000000162       NaN
0.17580000000000168       NaN
0.17600000000000166       NaN
0.1762000000000017        NaN
0.17640000000000164       NaN
0.17660000000000164       NaN
0.17680000000000168       NaN
0.17700000000000166       NaN
0.1772000000000017        NaN
0.17740000000000164       NaN
0.17760000000000167       NaN
0.1778000000000017        NaN
0.1780000000000017        NaN
0.17820000000000175       NaN
0.17840000000000167       NaN
0.17860000000000167       NaN
0.17880000000000174       NaN
0.1790000000000017        NaN
0.1792000000000014        NaN
0.179400000000001         NaN
0.17960000000000065       NaN
0.17980000000000038       NaN
0.18000000000000002       NaN
